-- Merging decision tree log ---
manifest
ADDED from /ferramentas/workspace/cross-platform/doggis/doggis/android/app/src/main/AndroidManifest.xml:1:1-33:12
INJECTED from /ferramentas/workspace/cross-platform/doggis/doggis/android/app/src/main/AndroidManifest.xml:1:1-33:12
INJECTED from /ferramentas/workspace/cross-platform/doggis/doggis/android/app/src/main/AndroidManifest.xml:1:1-33:12
INJECTED from /ferramentas/workspace/cross-platform/doggis/doggis/android/app/src/main/AndroidManifest.xml:1:1-33:12
MERGED from /ferramentas/workspace/cross-platform/doggis/doggis/android/app/src/main/AndroidManifest.xml:1:1-33:12
MERGED from [:firebase_auth] /ferramentas/workspace/cross-platform/doggis/doggis/build/firebase_auth/intermediates/merged_manifests/debug/processDebugManifest/merged/AndroidManifest.xml:2:1-15:12
MERGED from [:firebase_database] /ferramentas/workspace/cross-platform/doggis/doggis/build/firebase_database/intermediates/merged_manifests/debug/processDebugManifest/merged/AndroidManifest.xml:2:1-15:12
MERGED from [:firebase_core] /ferramentas/workspace/cross-platform/doggis/doggis/build/firebase_core/intermediates/merged_manifests/debug/processDebugManifest/merged/AndroidManifest.xml:2:1-15:12
MERGED from [com.google.firebase:firebase-core:16.0.9] /Users/Dennys/.gradle/caches/transforms-1/files-1.1/firebase-core-16.0.9.aar/95bb4b51f98745ba4d124b247099a76d/AndroidManifest.xml:2:1-9:12
MERGED from [com.google.firebase:firebase-auth:17.0.0] /Users/Dennys/.gradle/caches/transforms-1/files-1.1/jetified-firebase-auth-17.0.0.aar/6a94b0a0351bb37b5895b05804879275/AndroidManifest.xml:17:1-42:12
MERGED from [com.google.firebase:firebase-database:17.0.0] /Users/Dennys/.gradle/caches/transforms-1/files-1.1/jetified-firebase-database-17.0.0.aar/5182411a94afa88d38b844b1ae22bffa/AndroidManifest.xml:15:1-36:12
MERGED from [com.google.firebase:firebase-auth-interop:17.0.0] /Users/Dennys/.gradle/caches/transforms-1/files-1.1/jetified-firebase-auth-interop-17.0.0.aar/46c60bf09b6df31f769fc94c7c3bfe37/AndroidManifest.xml:2:1-10:12
MERGED from [com.google.firebase:firebase-analytics:16.5.0] /Users/Dennys/.gradle/caches/transforms-1/files-1.1/firebase-analytics-16.5.0.aar/5b787d1fc36172055fec209938be9d85/AndroidManifest.xml:2:1-9:12
MERGED from [com.google.android.gms:play-services-measurement-api:16.5.0] /Users/Dennys/.gradle/caches/transforms-1/files-1.1/jetified-play-services-measurement-api-16.5.0.aar/e0f46fa86e6d0d0039ac285a9d519be8/AndroidManifest.xml:17:1-36:12
MERGED from [com.google.firebase:firebase-iid:17.1.2] /Users/Dennys/.gradle/caches/transforms-1/files-1.1/jetified-firebase-iid-17.1.2.aar/44b085a57c9beadf526e981c497d02d0/AndroidManifest.xml:17:1-59:12
MERGED from [com.google.firebase:firebase-common:17.0.0] /Users/Dennys/.gradle/caches/transforms-1/files-1.1/jetified-firebase-common-17.0.0.aar/1ffc4816ee15ff3247fe7fa23f7f50f2/AndroidManifest.xml:2:1-19:12
MERGED from [com.google.android.gms:play-services-flags:16.0.1] /Users/Dennys/.gradle/caches/transforms-1/files-1.1/play-services-flags-16.0.1.aar/05c8b39ff51990f030293d02a0f556a1/AndroidManifest.xml:17:1-22:12
MERGED from [com.google.firebase:firebase-iid-interop:16.0.1] /Users/Dennys/.gradle/caches/transforms-1/files-1.1/jetified-firebase-iid-interop-16.0.1.aar/b2aca7320a5266d8285019cb88a82ea3/AndroidManifest.xml:2:1-10:12
MERGED from [com.google.android.gms:play-services-base:16.0.1] /Users/Dennys/.gradle/caches/transforms-1/files-1.1/jetified-play-services-base-16.0.1.aar/b63e17c3b319c13d7e8f286cf5ffca95/AndroidManifest.xml:17:1-29:12
MERGED from [com.google.android.gms:play-services-tasks:16.0.1] /Users/Dennys/.gradle/caches/transforms-1/files-1.1/jetified-play-services-tasks-16.0.1.aar/f03d47a8080ec8f3b5cfa691d8cd9094/AndroidManifest.xml:2:1-9:12
MERGED from [com.google.android.gms:play-services-measurement:16.5.0] /Users/Dennys/.gradle/caches/transforms-1/files-1.1/jetified-play-services-measurement-16.5.0.aar/ee9de075ef81fb20962eb30c9b4fcac6/AndroidManifest.xml:17:1-55:12
MERGED from [com.google.android.gms:play-services-measurement-sdk:16.5.0] /Users/Dennys/.gradle/caches/transforms-1/files-1.1/jetified-play-services-measurement-sdk-16.5.0.aar/82b05f3035403ac425c78a0345b07c6d/AndroidManifest.xml:17:1-25:12
MERGED from [com.google.android.gms:play-services-measurement-impl:16.5.0] /Users/Dennys/.gradle/caches/transforms-1/files-1.1/jetified-play-services-measurement-impl-16.5.0.aar/31a62aea67c43fd692e0ddead53c34af/AndroidManifest.xml:17:1-40:12
MERGED from [com.google.android.gms:play-services-measurement-sdk-api:16.5.0] /Users/Dennys/.gradle/caches/transforms-1/files-1.1/jetified-play-services-measurement-sdk-api-16.5.0.aar/d9438559e410b272aa23e2337889b611/AndroidManifest.xml:17:1-40:12
MERGED from [com.google.android.gms:play-services-measurement-base:16.5.0] /Users/Dennys/.gradle/caches/transforms-1/files-1.1/jetified-play-services-measurement-base-16.5.0.aar/4b627249036d845e02ada9ee3487a845/AndroidManifest.xml:2:1-9:12
MERGED from [com.google.android.gms:play-services-stats:16.0.1] /Users/Dennys/.gradle/caches/transforms-1/files-1.1/jetified-play-services-stats-16.0.1.aar/5161a951a8f1187da72fc36b726cafec/AndroidManifest.xml:2:1-9:12
MERGED from [com.google.firebase:firebase-measurement-connector:17.0.1] /Users/Dennys/.gradle/caches/transforms-1/files-1.1/jetified-firebase-measurement-connector-17.0.1.aar/6ef570188281bee39a71ba41fb222d25/AndroidManifest.xml:17:1-25:12
MERGED from [com.google.android.gms:play-services-ads-identifier:16.0.0] /Users/Dennys/.gradle/caches/transforms-1/files-1.1/jetified-play-services-ads-identifier-16.0.0.aar/226009e5daabb12ac22e269d0f23caf0/AndroidManifest.xml:17:1-24:12
MERGED from [com.google.android.gms:play-services-basement:16.2.0] /Users/Dennys/.gradle/caches/transforms-1/files-1.1/jetified-play-services-basement-16.2.0.aar/99244270b8dbf319d2c19efdddbead50/AndroidManifest.xml:17:1-28:12
MERGED from [com.google.firebase:firebase-database-collection:16.0.1] /Users/Dennys/.gradle/caches/transforms-1/files-1.1/firebase-database-collection-16.0.1.aar/7ebb761896d6cd073ab1108163db040c/AndroidManifest.xml:2:1-7:12
MERGED from [androidx.legacy:legacy-support-v4:1.0.0-rc01] /Users/Dennys/.gradle/caches/transforms-1/files-1.1/legacy-support-v4-1.0.0-rc01.aar/b38068206074a153fd385761da9ac32d/AndroidManifest.xml:17:1-22:12
MERGED from [androidx.media:media:1.0.0-rc01] /Users/Dennys/.gradle/caches/transforms-1/files-1.1/media-1.0.0-rc01.aar/8db0f9de4749ffb2254de6d1971430b6/AndroidManifest.xml:17:1-22:12
MERGED from [androidx.fragment:fragment:1.0.0-rc01] /Users/Dennys/.gradle/caches/transforms-1/files-1.1/fragment-1.0.0-rc01.aar/c0ead22dd0f66c7f8bf499732a336635/AndroidManifest.xml:17:1-22:12
MERGED from [androidx.legacy:legacy-support-core-ui:1.0.0-rc01] /Users/Dennys/.gradle/caches/transforms-1/files-1.1/legacy-support-core-ui-1.0.0-rc01.aar/513d4cc3a8cecc9c569983444f3bcea0/AndroidManifest.xml:17:1-22:12
MERGED from [androidx.legacy:legacy-support-core-utils:1.0.0-rc01] /Users/Dennys/.gradle/caches/transforms-1/files-1.1/legacy-support-core-utils-1.0.0-rc01.aar/83679e04c4ff97b8bf6364b17a850368/AndroidManifest.xml:17:1-22:12
MERGED from [androidx.loader:loader:1.0.0-rc01] /Users/Dennys/.gradle/caches/transforms-1/files-1.1/loader-1.0.0-rc01.aar/7203f8380fb7c033db0c63356d1a0848/AndroidManifest.xml:17:1-22:12
MERGED from [androidx.viewpager:viewpager:1.0.0-rc01] /Users/Dennys/.gradle/caches/transforms-1/files-1.1/viewpager-1.0.0-rc01.aar/332233b04f17b7663e95df95e56d85e5/AndroidManifest.xml:17:1-22:12
MERGED from [androidx.coordinatorlayout:coordinatorlayout:1.0.0-rc01] /Users/Dennys/.gradle/caches/transforms-1/files-1.1/coordinatorlayout-1.0.0-rc01.aar/4c2b4fd599b6e24d2e48970df4b76440/AndroidManifest.xml:17:1-22:12
MERGED from [androidx.drawerlayout:drawerlayout:1.0.0-rc01] /Users/Dennys/.gradle/caches/transforms-1/files-1.1/drawerlayout-1.0.0-rc01.aar/4b68ac76475d7507fca5d703350891fa/AndroidManifest.xml:17:1-22:12
MERGED from [androidx.slidingpanelayout:slidingpanelayout:1.0.0-rc01] /Users/Dennys/.gradle/caches/transforms-1/files-1.1/slidingpanelayout-1.0.0-rc01.aar/db4374ff298a65b7caea8b460bcb8f28/AndroidManifest.xml:17:1-22:12
MERGED from [androidx.customview:customview:1.0.0-rc01] /Users/Dennys/.gradle/caches/transforms-1/files-1.1/customview-1.0.0-rc01.aar/d6142954c2026bca8febc6efb20beafe/AndroidManifest.xml:17:1-22:12
MERGED from [androidx.swiperefreshlayout:swiperefreshlayout:1.0.0-rc01] /Users/Dennys/.gradle/caches/transforms-1/files-1.1/swiperefreshlayout-1.0.0-rc01.aar/2f69300a61239b0c8c05c1d3527f1280/AndroidManifest.xml:17:1-22:12
MERGED from [androidx.asynclayoutinflater:asynclayoutinflater:1.0.0-rc01] /Users/Dennys/.gradle/caches/transforms-1/files-1.1/asynclayoutinflater-1.0.0-rc01.aar/a0dcbde4ab17517005b711ff1c0484bf/AndroidManifest.xml:17:1-22:12
MERGED from [androidx.core:core:1.0.0-rc01] /Users/Dennys/.gradle/caches/transforms-1/files-1.1/core-1.0.0-rc01.aar/0de174c23b9258434a280ddabca014d4/AndroidManifest.xml:17:1-24:12
MERGED from [androidx.versionedparcelable:versionedparcelable:1.0.0-rc01] /Users/Dennys/.gradle/caches/transforms-1/files-1.1/versionedparcelable-1.0.0-rc01.aar/232f5d3842bd20553ab113b154c7c805/AndroidManifest.xml:17:1-25:12
MERGED from [androidx.documentfile:documentfile:1.0.0-rc01] /Users/Dennys/.gradle/caches/transforms-1/files-1.1/documentfile-1.0.0-rc01.aar/0c2bafc5b49ea8d513642ca2b43593ec/AndroidManifest.xml:17:1-22:12
MERGED from [androidx.localbroadcastmanager:localbroadcastmanager:1.0.0-rc01] /Users/Dennys/.gradle/caches/transforms-1/files-1.1/localbroadcastmanager-1.0.0-rc01.aar/23428496c74a1db7e356eefbac36e6b2/AndroidManifest.xml:17:1-22:12
MERGED from [androidx.print:print:1.0.0-rc01] /Users/Dennys/.gradle/caches/transforms-1/files-1.1/print-1.0.0-rc01.aar/a322d70178b6f6ff2f3e069cfabf3089/AndroidManifest.xml:17:1-22:12
MERGED from [androidx.interpolator:interpolator:1.0.0-rc01] /Users/Dennys/.gradle/caches/transforms-1/files-1.1/interpolator-1.0.0-rc01.aar/ffed87b8a758dc154bbfee47c62cbedb/AndroidManifest.xml:17:1-22:12
MERGED from [androidx.cursoradapter:cursoradapter:1.0.0-rc01] /Users/Dennys/.gradle/caches/transforms-1/files-1.1/cursoradapter-1.0.0-rc01.aar/6f241dbd3c9152474e3664194fff4911/AndroidManifest.xml:17:1-22:12
MERGED from [androidx.lifecycle:lifecycle-runtime:2.0.0-rc01] /Users/Dennys/.gradle/caches/transforms-1/files-1.1/lifecycle-runtime-2.0.0-rc01.aar/76cb2604f22c5a072d6545ccf4005e3d/AndroidManifest.xml:17:1-22:12
MERGED from [androidx.lifecycle:lifecycle-viewmodel:2.0.0-rc01] /Users/Dennys/.gradle/caches/transforms-1/files-1.1/lifecycle-viewmodel-2.0.0-rc01.aar/c80b4a6daaa25a86a25d9ceabf4fa7e5/AndroidManifest.xml:17:1-22:12
MERGED from [androidx.lifecycle:lifecycle-livedata-core:2.0.0-rc01] /Users/Dennys/.gradle/caches/transforms-1/files-1.1/lifecycle-livedata-core-2.0.0-rc01.aar/e9a1c7dce13957d62da31bbc1c4d60c6/AndroidManifest.xml:17:1-22:12
MERGED from [androidx.arch.core:core-runtime:2.0.0-rc01] /Users/Dennys/.gradle/caches/transforms-1/files-1.1/core-runtime-2.0.0-rc01.aar/b5ebae15579ced7d414ee15cfdcd63c6/AndroidManifest.xml:17:1-22:12
INJECTED from /ferramentas/workspace/cross-platform/doggis/doggis/android/app/src/debug/AndroidManifest.xml:1:1-7:12
INJECTED from /ferramentas/workspace/cross-platform/doggis/doggis/android/app/src/debug/AndroidManifest.xml:1:1-7:12
INJECTED from /ferramentas/workspace/cross-platform/doggis/doggis/android/app/src/debug/AndroidManifest.xml:1:1-7:12
	package
		ADDED from /ferramentas/workspace/cross-platform/doggis/doggis/android/app/src/main/AndroidManifest.xml:2:5-37
		INJECTED from /ferramentas/workspace/cross-platform/doggis/doggis/android/app/src/main/AndroidManifest.xml
		INJECTED from /ferramentas/workspace/cross-platform/doggis/doggis/android/app/src/debug/AndroidManifest.xml
	android:versionName
		INJECTED from /ferramentas/workspace/cross-platform/doggis/doggis/android/app/src/main/AndroidManifest.xml
		ADDED from /ferramentas/workspace/cross-platform/doggis/doggis/android/app/src/main/AndroidManifest.xml:1:1-33:12
		INJECTED from /ferramentas/workspace/cross-platform/doggis/doggis/android/app/src/debug/AndroidManifest.xml
	android:versionCode
		INJECTED from /ferramentas/workspace/cross-platform/doggis/doggis/android/app/src/main/AndroidManifest.xml
		ADDED from /ferramentas/workspace/cross-platform/doggis/doggis/android/app/src/main/AndroidManifest.xml:1:1-33:12
		INJECTED from /ferramentas/workspace/cross-platform/doggis/doggis/android/app/src/debug/AndroidManifest.xml
	xmlns:android
		ADDED from /ferramentas/workspace/cross-platform/doggis/doggis/android/app/src/main/AndroidManifest.xml:1:11-69
application
ADDED from /ferramentas/workspace/cross-platform/doggis/doggis/android/app/src/main/AndroidManifest.xml:9:5-32:19
MERGED from [:firebase_auth] /ferramentas/workspace/cross-platform/doggis/doggis/build/firebase_auth/intermediates/merged_manifests/debug/processDebugManifest/merged/AndroidManifest.xml:7:5-13:19
MERGED from [:firebase_auth] /ferramentas/workspace/cross-platform/doggis/doggis/build/firebase_auth/intermediates/merged_manifests/debug/processDebugManifest/merged/AndroidManifest.xml:7:5-13:19
MERGED from [:firebase_database] /ferramentas/workspace/cross-platform/doggis/doggis/build/firebase_database/intermediates/merged_manifests/debug/processDebugManifest/merged/AndroidManifest.xml:7:5-13:19
MERGED from [:firebase_database] /ferramentas/workspace/cross-platform/doggis/doggis/build/firebase_database/intermediates/merged_manifests/debug/processDebugManifest/merged/AndroidManifest.xml:7:5-13:19
MERGED from [:firebase_core] /ferramentas/workspace/cross-platform/doggis/doggis/build/firebase_core/intermediates/merged_manifests/debug/processDebugManifest/merged/AndroidManifest.xml:7:5-13:19
MERGED from [:firebase_core] /ferramentas/workspace/cross-platform/doggis/doggis/build/firebase_core/intermediates/merged_manifests/debug/processDebugManifest/merged/AndroidManifest.xml:7:5-13:19
MERGED from [com.google.firebase:firebase-core:16.0.9] /Users/Dennys/.gradle/caches/transforms-1/files-1.1/firebase-core-16.0.9.aar/95bb4b51f98745ba4d124b247099a76d/AndroidManifest.xml:7:5-20
MERGED from [com.google.firebase:firebase-core:16.0.9] /Users/Dennys/.gradle/caches/transforms-1/files-1.1/firebase-core-16.0.9.aar/95bb4b51f98745ba4d124b247099a76d/AndroidManifest.xml:7:5-20
MERGED from [com.google.firebase:firebase-auth:17.0.0] /Users/Dennys/.gradle/caches/transforms-1/files-1.1/jetified-firebase-auth-17.0.0.aar/6a94b0a0351bb37b5895b05804879275/AndroidManifest.xml:23:5-40:19
MERGED from [com.google.firebase:firebase-auth:17.0.0] /Users/Dennys/.gradle/caches/transforms-1/files-1.1/jetified-firebase-auth-17.0.0.aar/6a94b0a0351bb37b5895b05804879275/AndroidManifest.xml:23:5-40:19
MERGED from [com.google.firebase:firebase-database:17.0.0] /Users/Dennys/.gradle/caches/transforms-1/files-1.1/jetified-firebase-database-17.0.0.aar/5182411a94afa88d38b844b1ae22bffa/AndroidManifest.xml:28:5-34:19
MERGED from [com.google.firebase:firebase-database:17.0.0] /Users/Dennys/.gradle/caches/transforms-1/files-1.1/jetified-firebase-database-17.0.0.aar/5182411a94afa88d38b844b1ae22bffa/AndroidManifest.xml:28:5-34:19
MERGED from [com.google.firebase:firebase-auth-interop:17.0.0] /Users/Dennys/.gradle/caches/transforms-1/files-1.1/jetified-firebase-auth-interop-17.0.0.aar/46c60bf09b6df31f769fc94c7c3bfe37/AndroidManifest.xml:7:5-8:19
MERGED from [com.google.firebase:firebase-auth-interop:17.0.0] /Users/Dennys/.gradle/caches/transforms-1/files-1.1/jetified-firebase-auth-interop-17.0.0.aar/46c60bf09b6df31f769fc94c7c3bfe37/AndroidManifest.xml:7:5-8:19
MERGED from [com.google.firebase:firebase-analytics:16.5.0] /Users/Dennys/.gradle/caches/transforms-1/files-1.1/firebase-analytics-16.5.0.aar/5b787d1fc36172055fec209938be9d85/AndroidManifest.xml:7:5-20
MERGED from [com.google.firebase:firebase-analytics:16.5.0] /Users/Dennys/.gradle/caches/transforms-1/files-1.1/firebase-analytics-16.5.0.aar/5b787d1fc36172055fec209938be9d85/AndroidManifest.xml:7:5-20
MERGED from [com.google.android.gms:play-services-measurement-api:16.5.0] /Users/Dennys/.gradle/caches/transforms-1/files-1.1/jetified-play-services-measurement-api-16.5.0.aar/e0f46fa86e6d0d0039ac285a9d519be8/AndroidManifest.xml:26:5-34:19
MERGED from [com.google.android.gms:play-services-measurement-api:16.5.0] /Users/Dennys/.gradle/caches/transforms-1/files-1.1/jetified-play-services-measurement-api-16.5.0.aar/e0f46fa86e6d0d0039ac285a9d519be8/AndroidManifest.xml:26:5-34:19
MERGED from [com.google.firebase:firebase-iid:17.1.2] /Users/Dennys/.gradle/caches/transforms-1/files-1.1/jetified-firebase-iid-17.1.2.aar/44b085a57c9beadf526e981c497d02d0/AndroidManifest.xml:28:5-57:19
MERGED from [com.google.firebase:firebase-iid:17.1.2] /Users/Dennys/.gradle/caches/transforms-1/files-1.1/jetified-firebase-iid-17.1.2.aar/44b085a57c9beadf526e981c497d02d0/AndroidManifest.xml:28:5-57:19
MERGED from [com.google.firebase:firebase-common:17.0.0] /Users/Dennys/.gradle/caches/transforms-1/files-1.1/jetified-firebase-common-17.0.0.aar/1ffc4816ee15ff3247fe7fa23f7f50f2/AndroidManifest.xml:11:5-17:19
MERGED from [com.google.firebase:firebase-common:17.0.0] /Users/Dennys/.gradle/caches/transforms-1/files-1.1/jetified-firebase-common-17.0.0.aar/1ffc4816ee15ff3247fe7fa23f7f50f2/AndroidManifest.xml:11:5-17:19
MERGED from [com.google.firebase:firebase-iid-interop:16.0.1] /Users/Dennys/.gradle/caches/transforms-1/files-1.1/jetified-firebase-iid-interop-16.0.1.aar/b2aca7320a5266d8285019cb88a82ea3/AndroidManifest.xml:7:5-8:19
MERGED from [com.google.firebase:firebase-iid-interop:16.0.1] /Users/Dennys/.gradle/caches/transforms-1/files-1.1/jetified-firebase-iid-interop-16.0.1.aar/b2aca7320a5266d8285019cb88a82ea3/AndroidManifest.xml:7:5-8:19
MERGED from [com.google.android.gms:play-services-base:16.0.1] /Users/Dennys/.gradle/caches/transforms-1/files-1.1/jetified-play-services-base-16.0.1.aar/b63e17c3b319c13d7e8f286cf5ffca95/AndroidManifest.xml:22:5-27:19
MERGED from [com.google.android.gms:play-services-base:16.0.1] /Users/Dennys/.gradle/caches/transforms-1/files-1.1/jetified-play-services-base-16.0.1.aar/b63e17c3b319c13d7e8f286cf5ffca95/AndroidManifest.xml:22:5-27:19
MERGED from [com.google.android.gms:play-services-tasks:16.0.1] /Users/Dennys/.gradle/caches/transforms-1/files-1.1/jetified-play-services-tasks-16.0.1.aar/f03d47a8080ec8f3b5cfa691d8cd9094/AndroidManifest.xml:7:5-20
MERGED from [com.google.android.gms:play-services-tasks:16.0.1] /Users/Dennys/.gradle/caches/transforms-1/files-1.1/jetified-play-services-tasks-16.0.1.aar/f03d47a8080ec8f3b5cfa691d8cd9094/AndroidManifest.xml:7:5-20
MERGED from [com.google.android.gms:play-services-measurement:16.5.0] /Users/Dennys/.gradle/caches/transforms-1/files-1.1/jetified-play-services-measurement-16.5.0.aar/ee9de075ef81fb20962eb30c9b4fcac6/AndroidManifest.xml:28:5-53:19
MERGED from [com.google.android.gms:play-services-measurement:16.5.0] /Users/Dennys/.gradle/caches/transforms-1/files-1.1/jetified-play-services-measurement-16.5.0.aar/ee9de075ef81fb20962eb30c9b4fcac6/AndroidManifest.xml:28:5-53:19
MERGED from [com.google.android.gms:play-services-measurement-sdk:16.5.0] /Users/Dennys/.gradle/caches/transforms-1/files-1.1/jetified-play-services-measurement-sdk-16.5.0.aar/82b05f3035403ac425c78a0345b07c6d/AndroidManifest.xml:22:5-23:19
MERGED from [com.google.android.gms:play-services-measurement-sdk:16.5.0] /Users/Dennys/.gradle/caches/transforms-1/files-1.1/jetified-play-services-measurement-sdk-16.5.0.aar/82b05f3035403ac425c78a0345b07c6d/AndroidManifest.xml:22:5-23:19
MERGED from [com.google.android.gms:play-services-measurement-impl:16.5.0] /Users/Dennys/.gradle/caches/transforms-1/files-1.1/jetified-play-services-measurement-impl-16.5.0.aar/31a62aea67c43fd692e0ddead53c34af/AndroidManifest.xml:28:5-38:19
MERGED from [com.google.android.gms:play-services-measurement-impl:16.5.0] /Users/Dennys/.gradle/caches/transforms-1/files-1.1/jetified-play-services-measurement-impl-16.5.0.aar/31a62aea67c43fd692e0ddead53c34af/AndroidManifest.xml:28:5-38:19
MERGED from [com.google.android.gms:play-services-measurement-sdk-api:16.5.0] /Users/Dennys/.gradle/caches/transforms-1/files-1.1/jetified-play-services-measurement-sdk-api-16.5.0.aar/d9438559e410b272aa23e2337889b611/AndroidManifest.xml:28:5-38:19
MERGED from [com.google.android.gms:play-services-measurement-sdk-api:16.5.0] /Users/Dennys/.gradle/caches/transforms-1/files-1.1/jetified-play-services-measurement-sdk-api-16.5.0.aar/d9438559e410b272aa23e2337889b611/AndroidManifest.xml:28:5-38:19
MERGED from [com.google.android.gms:play-services-measurement-base:16.5.0] /Users/Dennys/.gradle/caches/transforms-1/files-1.1/jetified-play-services-measurement-base-16.5.0.aar/4b627249036d845e02ada9ee3487a845/AndroidManifest.xml:7:5-20
MERGED from [com.google.android.gms:play-services-measurement-base:16.5.0] /Users/Dennys/.gradle/caches/transforms-1/files-1.1/jetified-play-services-measurement-base-16.5.0.aar/4b627249036d845e02ada9ee3487a845/AndroidManifest.xml:7:5-20
MERGED from [com.google.android.gms:play-services-stats:16.0.1] /Users/Dennys/.gradle/caches/transforms-1/files-1.1/jetified-play-services-stats-16.0.1.aar/5161a951a8f1187da72fc36b726cafec/AndroidManifest.xml:7:5-20
MERGED from [com.google.android.gms:play-services-stats:16.0.1] /Users/Dennys/.gradle/caches/transforms-1/files-1.1/jetified-play-services-stats-16.0.1.aar/5161a951a8f1187da72fc36b726cafec/AndroidManifest.xml:7:5-20
MERGED from [com.google.firebase:firebase-measurement-connector:17.0.1] /Users/Dennys/.gradle/caches/transforms-1/files-1.1/jetified-firebase-measurement-connector-17.0.1.aar/6ef570188281bee39a71ba41fb222d25/AndroidManifest.xml:22:5-23:19
MERGED from [com.google.firebase:firebase-measurement-connector:17.0.1] /Users/Dennys/.gradle/caches/transforms-1/files-1.1/jetified-firebase-measurement-connector-17.0.1.aar/6ef570188281bee39a71ba41fb222d25/AndroidManifest.xml:22:5-23:19
MERGED from [com.google.android.gms:play-services-ads-identifier:16.0.0] /Users/Dennys/.gradle/caches/transforms-1/files-1.1/jetified-play-services-ads-identifier-16.0.0.aar/226009e5daabb12ac22e269d0f23caf0/AndroidManifest.xml:22:5-20
MERGED from [com.google.android.gms:play-services-ads-identifier:16.0.0] /Users/Dennys/.gradle/caches/transforms-1/files-1.1/jetified-play-services-ads-identifier-16.0.0.aar/226009e5daabb12ac22e269d0f23caf0/AndroidManifest.xml:22:5-20
MERGED from [com.google.android.gms:play-services-basement:16.2.0] /Users/Dennys/.gradle/caches/transforms-1/files-1.1/jetified-play-services-basement-16.2.0.aar/99244270b8dbf319d2c19efdddbead50/AndroidManifest.xml:22:5-26:19
MERGED from [com.google.android.gms:play-services-basement:16.2.0] /Users/Dennys/.gradle/caches/transforms-1/files-1.1/jetified-play-services-basement-16.2.0.aar/99244270b8dbf319d2c19efdddbead50/AndroidManifest.xml:22:5-26:19
MERGED from [androidx.core:core:1.0.0-rc01] /Users/Dennys/.gradle/caches/transforms-1/files-1.1/core-1.0.0-rc01.aar/0de174c23b9258434a280ddabca014d4/AndroidManifest.xml:22:5-89
MERGED from [androidx.core:core:1.0.0-rc01] /Users/Dennys/.gradle/caches/transforms-1/files-1.1/core-1.0.0-rc01.aar/0de174c23b9258434a280ddabca014d4/AndroidManifest.xml:22:5-89
MERGED from [androidx.versionedparcelable:versionedparcelable:1.0.0-rc01] /Users/Dennys/.gradle/caches/transforms-1/files-1.1/versionedparcelable-1.0.0-rc01.aar/232f5d3842bd20553ab113b154c7c805/AndroidManifest.xml:22:5-23:19
MERGED from [androidx.versionedparcelable:versionedparcelable:1.0.0-rc01] /Users/Dennys/.gradle/caches/transforms-1/files-1.1/versionedparcelable-1.0.0-rc01.aar/232f5d3842bd20553ab113b154c7c805/AndroidManifest.xml:22:5-23:19
	android:appComponentFactory
		ADDED from [androidx.core:core:1.0.0-rc01] /Users/Dennys/.gradle/caches/transforms-1/files-1.1/core-1.0.0-rc01.aar/0de174c23b9258434a280ddabca014d4/AndroidManifest.xml:22:18-86
	android:label
		ADDED from /ferramentas/workspace/cross-platform/doggis/doggis/android/app/src/main/AndroidManifest.xml:11:9-31
	android:icon
		ADDED from /ferramentas/workspace/cross-platform/doggis/doggis/android/app/src/main/AndroidManifest.xml:12:9-43
	android:name
		ADDED from /ferramentas/workspace/cross-platform/doggis/doggis/android/app/src/main/AndroidManifest.xml:10:9-57
activity#br.com.pucminas.doggis.MainActivity
ADDED from /ferramentas/workspace/cross-platform/doggis/doggis/android/app/src/main/AndroidManifest.xml:13:9-31:20
	android:launchMode
		ADDED from /ferramentas/workspace/cross-platform/doggis/doggis/android/app/src/main/AndroidManifest.xml:15:13-43
	android:hardwareAccelerated
		ADDED from /ferramentas/workspace/cross-platform/doggis/doggis/android/app/src/main/AndroidManifest.xml:18:13-47
	android:windowSoftInputMode
		ADDED from /ferramentas/workspace/cross-platform/doggis/doggis/android/app/src/main/AndroidManifest.xml:19:13-55
	android:configChanges
		ADDED from /ferramentas/workspace/cross-platform/doggis/doggis/android/app/src/main/AndroidManifest.xml:17:13-144
	android:theme
		ADDED from /ferramentas/workspace/cross-platform/doggis/doggis/android/app/src/main/AndroidManifest.xml:16:13-47
	android:name
		ADDED from /ferramentas/workspace/cross-platform/doggis/doggis/android/app/src/main/AndroidManifest.xml:14:13-41
meta-data#io.flutter.app.android.SplashScreenUntilFirstFrame
ADDED from /ferramentas/workspace/cross-platform/doggis/doggis/android/app/src/main/AndroidManifest.xml:24:13-26:40
	android:value
		ADDED from /ferramentas/workspace/cross-platform/doggis/doggis/android/app/src/main/AndroidManifest.xml:26:17-37
	android:name
		ADDED from /ferramentas/workspace/cross-platform/doggis/doggis/android/app/src/main/AndroidManifest.xml:25:17-82
intent-filter#action:name:android.intent.action.MAIN+category:name:android.intent.category.LAUNCHER
ADDED from /ferramentas/workspace/cross-platform/doggis/doggis/android/app/src/main/AndroidManifest.xml:27:13-30:29
action#android.intent.action.MAIN
ADDED from /ferramentas/workspace/cross-platform/doggis/doggis/android/app/src/main/AndroidManifest.xml:28:17-68
	android:name
		ADDED from /ferramentas/workspace/cross-platform/doggis/doggis/android/app/src/main/AndroidManifest.xml:28:25-66
category#android.intent.category.LAUNCHER
ADDED from /ferramentas/workspace/cross-platform/doggis/doggis/android/app/src/main/AndroidManifest.xml:29:17-76
	android:name
		ADDED from /ferramentas/workspace/cross-platform/doggis/doggis/android/app/src/main/AndroidManifest.xml:29:27-74
uses-sdk
INJECTED from /ferramentas/workspace/cross-platform/doggis/doggis/android/app/src/main/AndroidManifest.xml reason: use-sdk injection requested
INJECTED from /ferramentas/workspace/cross-platform/doggis/doggis/android/app/src/main/AndroidManifest.xml
INJECTED from /ferramentas/workspace/cross-platform/doggis/doggis/android/app/src/main/AndroidManifest.xml
MERGED from [:firebase_auth] /ferramentas/workspace/cross-platform/doggis/doggis/build/firebase_auth/intermediates/merged_manifests/debug/processDebugManifest/merged/AndroidManifest.xml:5:5-44
MERGED from [:firebase_auth] /ferramentas/workspace/cross-platform/doggis/doggis/build/firebase_auth/intermediates/merged_manifests/debug/processDebugManifest/merged/AndroidManifest.xml:5:5-44
MERGED from [:firebase_database] /ferramentas/workspace/cross-platform/doggis/doggis/build/firebase_database/intermediates/merged_manifests/debug/processDebugManifest/merged/AndroidManifest.xml:5:5-44
MERGED from [:firebase_database] /ferramentas/workspace/cross-platform/doggis/doggis/build/firebase_database/intermediates/merged_manifests/debug/processDebugManifest/merged/AndroidManifest.xml:5:5-44
MERGED from [:firebase_core] /ferramentas/workspace/cross-platform/doggis/doggis/build/firebase_core/intermediates/merged_manifests/debug/processDebugManifest/merged/AndroidManifest.xml:5:5-44
MERGED from [:firebase_core] /ferramentas/workspace/cross-platform/doggis/doggis/build/firebase_core/intermediates/merged_manifests/debug/processDebugManifest/merged/AndroidManifest.xml:5:5-44
MERGED from [com.google.firebase:firebase-core:16.0.9] /Users/Dennys/.gradle/caches/transforms-1/files-1.1/firebase-core-16.0.9.aar/95bb4b51f98745ba4d124b247099a76d/AndroidManifest.xml:5:5-44
MERGED from [com.google.firebase:firebase-core:16.0.9] /Users/Dennys/.gradle/caches/transforms-1/files-1.1/firebase-core-16.0.9.aar/95bb4b51f98745ba4d124b247099a76d/AndroidManifest.xml:5:5-44
MERGED from [com.google.firebase:firebase-auth:17.0.0] /Users/Dennys/.gradle/caches/transforms-1/files-1.1/jetified-firebase-auth-17.0.0.aar/6a94b0a0351bb37b5895b05804879275/AndroidManifest.xml:21:5-44
MERGED from [com.google.firebase:firebase-auth:17.0.0] /Users/Dennys/.gradle/caches/transforms-1/files-1.1/jetified-firebase-auth-17.0.0.aar/6a94b0a0351bb37b5895b05804879275/AndroidManifest.xml:21:5-44
MERGED from [com.google.firebase:firebase-database:17.0.0] /Users/Dennys/.gradle/caches/transforms-1/files-1.1/jetified-firebase-database-17.0.0.aar/5182411a94afa88d38b844b1ae22bffa/AndroidManifest.xml:19:5-21:41
MERGED from [com.google.firebase:firebase-database:17.0.0] /Users/Dennys/.gradle/caches/transforms-1/files-1.1/jetified-firebase-database-17.0.0.aar/5182411a94afa88d38b844b1ae22bffa/AndroidManifest.xml:19:5-21:41
MERGED from [com.google.firebase:firebase-auth-interop:17.0.0] /Users/Dennys/.gradle/caches/transforms-1/files-1.1/jetified-firebase-auth-interop-17.0.0.aar/46c60bf09b6df31f769fc94c7c3bfe37/AndroidManifest.xml:5:5-44
MERGED from [com.google.firebase:firebase-auth-interop:17.0.0] /Users/Dennys/.gradle/caches/transforms-1/files-1.1/jetified-firebase-auth-interop-17.0.0.aar/46c60bf09b6df31f769fc94c7c3bfe37/AndroidManifest.xml:5:5-44
MERGED from [com.google.firebase:firebase-analytics:16.5.0] /Users/Dennys/.gradle/caches/transforms-1/files-1.1/firebase-analytics-16.5.0.aar/5b787d1fc36172055fec209938be9d85/AndroidManifest.xml:5:5-44
MERGED from [com.google.firebase:firebase-analytics:16.5.0] /Users/Dennys/.gradle/caches/transforms-1/files-1.1/firebase-analytics-16.5.0.aar/5b787d1fc36172055fec209938be9d85/AndroidManifest.xml:5:5-44
MERGED from [com.google.android.gms:play-services-measurement-api:16.5.0] /Users/Dennys/.gradle/caches/transforms-1/files-1.1/jetified-play-services-measurement-api-16.5.0.aar/e0f46fa86e6d0d0039ac285a9d519be8/AndroidManifest.xml:20:5-44
MERGED from [com.google.android.gms:play-services-measurement-api:16.5.0] /Users/Dennys/.gradle/caches/transforms-1/files-1.1/jetified-play-services-measurement-api-16.5.0.aar/e0f46fa86e6d0d0039ac285a9d519be8/AndroidManifest.xml:20:5-44
MERGED from [com.google.firebase:firebase-iid:17.1.2] /Users/Dennys/.gradle/caches/transforms-1/files-1.1/jetified-firebase-iid-17.1.2.aar/44b085a57c9beadf526e981c497d02d0/AndroidManifest.xml:20:5-44
MERGED from [com.google.firebase:firebase-iid:17.1.2] /Users/Dennys/.gradle/caches/transforms-1/files-1.1/jetified-firebase-iid-17.1.2.aar/44b085a57c9beadf526e981c497d02d0/AndroidManifest.xml:20:5-44
MERGED from [com.google.firebase:firebase-common:17.0.0] /Users/Dennys/.gradle/caches/transforms-1/files-1.1/jetified-firebase-common-17.0.0.aar/1ffc4816ee15ff3247fe7fa23f7f50f2/AndroidManifest.xml:6:5-8:41
MERGED from [com.google.firebase:firebase-common:17.0.0] /Users/Dennys/.gradle/caches/transforms-1/files-1.1/jetified-firebase-common-17.0.0.aar/1ffc4816ee15ff3247fe7fa23f7f50f2/AndroidManifest.xml:6:5-8:41
MERGED from [com.google.android.gms:play-services-flags:16.0.1] /Users/Dennys/.gradle/caches/transforms-1/files-1.1/play-services-flags-16.0.1.aar/05c8b39ff51990f030293d02a0f556a1/AndroidManifest.xml:20:5-44
MERGED from [com.google.android.gms:play-services-flags:16.0.1] /Users/Dennys/.gradle/caches/transforms-1/files-1.1/play-services-flags-16.0.1.aar/05c8b39ff51990f030293d02a0f556a1/AndroidManifest.xml:20:5-44
MERGED from [com.google.firebase:firebase-iid-interop:16.0.1] /Users/Dennys/.gradle/caches/transforms-1/files-1.1/jetified-firebase-iid-interop-16.0.1.aar/b2aca7320a5266d8285019cb88a82ea3/AndroidManifest.xml:5:5-44
MERGED from [com.google.firebase:firebase-iid-interop:16.0.1] /Users/Dennys/.gradle/caches/transforms-1/files-1.1/jetified-firebase-iid-interop-16.0.1.aar/b2aca7320a5266d8285019cb88a82ea3/AndroidManifest.xml:5:5-44
MERGED from [com.google.android.gms:play-services-base:16.0.1] /Users/Dennys/.gradle/caches/transforms-1/files-1.1/jetified-play-services-base-16.0.1.aar/b63e17c3b319c13d7e8f286cf5ffca95/AndroidManifest.xml:20:5-44
MERGED from [com.google.android.gms:play-services-base:16.0.1] /Users/Dennys/.gradle/caches/transforms-1/files-1.1/jetified-play-services-base-16.0.1.aar/b63e17c3b319c13d7e8f286cf5ffca95/AndroidManifest.xml:20:5-44
MERGED from [com.google.android.gms:play-services-tasks:16.0.1] /Users/Dennys/.gradle/caches/transforms-1/files-1.1/jetified-play-services-tasks-16.0.1.aar/f03d47a8080ec8f3b5cfa691d8cd9094/AndroidManifest.xml:5:5-44
MERGED from [com.google.android.gms:play-services-tasks:16.0.1] /Users/Dennys/.gradle/caches/transforms-1/files-1.1/jetified-play-services-tasks-16.0.1.aar/f03d47a8080ec8f3b5cfa691d8cd9094/AndroidManifest.xml:5:5-44
MERGED from [com.google.android.gms:play-services-measurement:16.5.0] /Users/Dennys/.gradle/caches/transforms-1/files-1.1/jetified-play-services-measurement-16.5.0.aar/ee9de075ef81fb20962eb30c9b4fcac6/AndroidManifest.xml:20:5-44
MERGED from [com.google.android.gms:play-services-measurement:16.5.0] /Users/Dennys/.gradle/caches/transforms-1/files-1.1/jetified-play-services-measurement-16.5.0.aar/ee9de075ef81fb20962eb30c9b4fcac6/AndroidManifest.xml:20:5-44
MERGED from [com.google.android.gms:play-services-measurement-sdk:16.5.0] /Users/Dennys/.gradle/caches/transforms-1/files-1.1/jetified-play-services-measurement-sdk-16.5.0.aar/82b05f3035403ac425c78a0345b07c6d/AndroidManifest.xml:20:5-44
MERGED from [com.google.android.gms:play-services-measurement-sdk:16.5.0] /Users/Dennys/.gradle/caches/transforms-1/files-1.1/jetified-play-services-measurement-sdk-16.5.0.aar/82b05f3035403ac425c78a0345b07c6d/AndroidManifest.xml:20:5-44
MERGED from [com.google.android.gms:play-services-measurement-impl:16.5.0] /Users/Dennys/.gradle/caches/transforms-1/files-1.1/jetified-play-services-measurement-impl-16.5.0.aar/31a62aea67c43fd692e0ddead53c34af/AndroidManifest.xml:20:5-44
MERGED from [com.google.android.gms:play-services-measurement-impl:16.5.0] /Users/Dennys/.gradle/caches/transforms-1/files-1.1/jetified-play-services-measurement-impl-16.5.0.aar/31a62aea67c43fd692e0ddead53c34af/AndroidManifest.xml:20:5-44
MERGED from [com.google.android.gms:play-services-measurement-sdk-api:16.5.0] /Users/Dennys/.gradle/caches/transforms-1/files-1.1/jetified-play-services-measurement-sdk-api-16.5.0.aar/d9438559e410b272aa23e2337889b611/AndroidManifest.xml:20:5-44
MERGED from [com.google.android.gms:play-services-measurement-sdk-api:16.5.0] /Users/Dennys/.gradle/caches/transforms-1/files-1.1/jetified-play-services-measurement-sdk-api-16.5.0.aar/d9438559e410b272aa23e2337889b611/AndroidManifest.xml:20:5-44
MERGED from [com.google.android.gms:play-services-measurement-base:16.5.0] /Users/Dennys/.gradle/caches/transforms-1/files-1.1/jetified-play-services-measurement-base-16.5.0.aar/4b627249036d845e02ada9ee3487a845/AndroidManifest.xml:5:5-44
MERGED from [com.google.android.gms:play-services-measurement-base:16.5.0] /Users/Dennys/.gradle/caches/transforms-1/files-1.1/jetified-play-services-measurement-base-16.5.0.aar/4b627249036d845e02ada9ee3487a845/AndroidManifest.xml:5:5-44
MERGED from [com.google.android.gms:play-services-stats:16.0.1] /Users/Dennys/.gradle/caches/transforms-1/files-1.1/jetified-play-services-stats-16.0.1.aar/5161a951a8f1187da72fc36b726cafec/AndroidManifest.xml:5:5-44
MERGED from [com.google.android.gms:play-services-stats:16.0.1] /Users/Dennys/.gradle/caches/transforms-1/files-1.1/jetified-play-services-stats-16.0.1.aar/5161a951a8f1187da72fc36b726cafec/AndroidManifest.xml:5:5-44
MERGED from [com.google.firebase:firebase-measurement-connector:17.0.1] /Users/Dennys/.gradle/caches/transforms-1/files-1.1/jetified-firebase-measurement-connector-17.0.1.aar/6ef570188281bee39a71ba41fb222d25/AndroidManifest.xml:20:5-44
MERGED from [com.google.firebase:firebase-measurement-connector:17.0.1] /Users/Dennys/.gradle/caches/transforms-1/files-1.1/jetified-firebase-measurement-connector-17.0.1.aar/6ef570188281bee39a71ba41fb222d25/AndroidManifest.xml:20:5-44
MERGED from [com.google.android.gms:play-services-ads-identifier:16.0.0] /Users/Dennys/.gradle/caches/transforms-1/files-1.1/jetified-play-services-ads-identifier-16.0.0.aar/226009e5daabb12ac22e269d0f23caf0/AndroidManifest.xml:20:5-44
MERGED from [com.google.android.gms:play-services-ads-identifier:16.0.0] /Users/Dennys/.gradle/caches/transforms-1/files-1.1/jetified-play-services-ads-identifier-16.0.0.aar/226009e5daabb12ac22e269d0f23caf0/AndroidManifest.xml:20:5-44
MERGED from [com.google.android.gms:play-services-basement:16.2.0] /Users/Dennys/.gradle/caches/transforms-1/files-1.1/jetified-play-services-basement-16.2.0.aar/99244270b8dbf319d2c19efdddbead50/AndroidManifest.xml:20:5-44
MERGED from [com.google.android.gms:play-services-basement:16.2.0] /Users/Dennys/.gradle/caches/transforms-1/files-1.1/jetified-play-services-basement-16.2.0.aar/99244270b8dbf319d2c19efdddbead50/AndroidManifest.xml:20:5-44
MERGED from [com.google.firebase:firebase-database-collection:16.0.1] /Users/Dennys/.gradle/caches/transforms-1/files-1.1/firebase-database-collection-16.0.1.aar/7ebb761896d6cd073ab1108163db040c/AndroidManifest.xml:5:5-44
MERGED from [com.google.firebase:firebase-database-collection:16.0.1] /Users/Dennys/.gradle/caches/transforms-1/files-1.1/firebase-database-collection-16.0.1.aar/7ebb761896d6cd073ab1108163db040c/AndroidManifest.xml:5:5-44
MERGED from [androidx.legacy:legacy-support-v4:1.0.0-rc01] /Users/Dennys/.gradle/caches/transforms-1/files-1.1/legacy-support-v4-1.0.0-rc01.aar/b38068206074a153fd385761da9ac32d/AndroidManifest.xml:20:5-44
MERGED from [androidx.legacy:legacy-support-v4:1.0.0-rc01] /Users/Dennys/.gradle/caches/transforms-1/files-1.1/legacy-support-v4-1.0.0-rc01.aar/b38068206074a153fd385761da9ac32d/AndroidManifest.xml:20:5-44
MERGED from [androidx.media:media:1.0.0-rc01] /Users/Dennys/.gradle/caches/transforms-1/files-1.1/media-1.0.0-rc01.aar/8db0f9de4749ffb2254de6d1971430b6/AndroidManifest.xml:20:5-44
MERGED from [androidx.media:media:1.0.0-rc01] /Users/Dennys/.gradle/caches/transforms-1/files-1.1/media-1.0.0-rc01.aar/8db0f9de4749ffb2254de6d1971430b6/AndroidManifest.xml:20:5-44
MERGED from [androidx.fragment:fragment:1.0.0-rc01] /Users/Dennys/.gradle/caches/transforms-1/files-1.1/fragment-1.0.0-rc01.aar/c0ead22dd0f66c7f8bf499732a336635/AndroidManifest.xml:20:5-44
MERGED from [androidx.fragment:fragment:1.0.0-rc01] /Users/Dennys/.gradle/caches/transforms-1/files-1.1/fragment-1.0.0-rc01.aar/c0ead22dd0f66c7f8bf499732a336635/AndroidManifest.xml:20:5-44
MERGED from [androidx.legacy:legacy-support-core-ui:1.0.0-rc01] /Users/Dennys/.gradle/caches/transforms-1/files-1.1/legacy-support-core-ui-1.0.0-rc01.aar/513d4cc3a8cecc9c569983444f3bcea0/AndroidManifest.xml:20:5-44
MERGED from [androidx.legacy:legacy-support-core-ui:1.0.0-rc01] /Users/Dennys/.gradle/caches/transforms-1/files-1.1/legacy-support-core-ui-1.0.0-rc01.aar/513d4cc3a8cecc9c569983444f3bcea0/AndroidManifest.xml:20:5-44
MERGED from [androidx.legacy:legacy-support-core-utils:1.0.0-rc01] /Users/Dennys/.gradle/caches/transforms-1/files-1.1/legacy-support-core-utils-1.0.0-rc01.aar/83679e04c4ff97b8bf6364b17a850368/AndroidManifest.xml:20:5-44
MERGED from [androidx.legacy:legacy-support-core-utils:1.0.0-rc01] /Users/Dennys/.gradle/caches/transforms-1/files-1.1/legacy-support-core-utils-1.0.0-rc01.aar/83679e04c4ff97b8bf6364b17a850368/AndroidManifest.xml:20:5-44
MERGED from [androidx.loader:loader:1.0.0-rc01] /Users/Dennys/.gradle/caches/transforms-1/files-1.1/loader-1.0.0-rc01.aar/7203f8380fb7c033db0c63356d1a0848/AndroidManifest.xml:20:5-44
MERGED from [androidx.loader:loader:1.0.0-rc01] /Users/Dennys/.gradle/caches/transforms-1/files-1.1/loader-1.0.0-rc01.aar/7203f8380fb7c033db0c63356d1a0848/AndroidManifest.xml:20:5-44
MERGED from [androidx.viewpager:viewpager:1.0.0-rc01] /Users/Dennys/.gradle/caches/transforms-1/files-1.1/viewpager-1.0.0-rc01.aar/332233b04f17b7663e95df95e56d85e5/AndroidManifest.xml:20:5-44
MERGED from [androidx.viewpager:viewpager:1.0.0-rc01] /Users/Dennys/.gradle/caches/transforms-1/files-1.1/viewpager-1.0.0-rc01.aar/332233b04f17b7663e95df95e56d85e5/AndroidManifest.xml:20:5-44
MERGED from [androidx.coordinatorlayout:coordinatorlayout:1.0.0-rc01] /Users/Dennys/.gradle/caches/transforms-1/files-1.1/coordinatorlayout-1.0.0-rc01.aar/4c2b4fd599b6e24d2e48970df4b76440/AndroidManifest.xml:20:5-44
MERGED from [androidx.coordinatorlayout:coordinatorlayout:1.0.0-rc01] /Users/Dennys/.gradle/caches/transforms-1/files-1.1/coordinatorlayout-1.0.0-rc01.aar/4c2b4fd599b6e24d2e48970df4b76440/AndroidManifest.xml:20:5-44
MERGED from [androidx.drawerlayout:drawerlayout:1.0.0-rc01] /Users/Dennys/.gradle/caches/transforms-1/files-1.1/drawerlayout-1.0.0-rc01.aar/4b68ac76475d7507fca5d703350891fa/AndroidManifest.xml:20:5-44
MERGED from [androidx.drawerlayout:drawerlayout:1.0.0-rc01] /Users/Dennys/.gradle/caches/transforms-1/files-1.1/drawerlayout-1.0.0-rc01.aar/4b68ac76475d7507fca5d703350891fa/AndroidManifest.xml:20:5-44
MERGED from [androidx.slidingpanelayout:slidingpanelayout:1.0.0-rc01] /Users/Dennys/.gradle/caches/transforms-1/files-1.1/slidingpanelayout-1.0.0-rc01.aar/db4374ff298a65b7caea8b460bcb8f28/AndroidManifest.xml:20:5-44
MERGED from [androidx.slidingpanelayout:slidingpanelayout:1.0.0-rc01] /Users/Dennys/.gradle/caches/transforms-1/files-1.1/slidingpanelayout-1.0.0-rc01.aar/db4374ff298a65b7caea8b460bcb8f28/AndroidManifest.xml:20:5-44
MERGED from [androidx.customview:customview:1.0.0-rc01] /Users/Dennys/.gradle/caches/transforms-1/files-1.1/customview-1.0.0-rc01.aar/d6142954c2026bca8febc6efb20beafe/AndroidManifest.xml:20:5-44
MERGED from [androidx.customview:customview:1.0.0-rc01] /Users/Dennys/.gradle/caches/transforms-1/files-1.1/customview-1.0.0-rc01.aar/d6142954c2026bca8febc6efb20beafe/AndroidManifest.xml:20:5-44
MERGED from [androidx.swiperefreshlayout:swiperefreshlayout:1.0.0-rc01] /Users/Dennys/.gradle/caches/transforms-1/files-1.1/swiperefreshlayout-1.0.0-rc01.aar/2f69300a61239b0c8c05c1d3527f1280/AndroidManifest.xml:20:5-44
MERGED from [androidx.swiperefreshlayout:swiperefreshlayout:1.0.0-rc01] /Users/Dennys/.gradle/caches/transforms-1/files-1.1/swiperefreshlayout-1.0.0-rc01.aar/2f69300a61239b0c8c05c1d3527f1280/AndroidManifest.xml:20:5-44
MERGED from [androidx.asynclayoutinflater:asynclayoutinflater:1.0.0-rc01] /Users/Dennys/.gradle/caches/transforms-1/files-1.1/asynclayoutinflater-1.0.0-rc01.aar/a0dcbde4ab17517005b711ff1c0484bf/AndroidManifest.xml:20:5-44
MERGED from [androidx.asynclayoutinflater:asynclayoutinflater:1.0.0-rc01] /Users/Dennys/.gradle/caches/transforms-1/files-1.1/asynclayoutinflater-1.0.0-rc01.aar/a0dcbde4ab17517005b711ff1c0484bf/AndroidManifest.xml:20:5-44
MERGED from [androidx.core:core:1.0.0-rc01] /Users/Dennys/.gradle/caches/transforms-1/files-1.1/core-1.0.0-rc01.aar/0de174c23b9258434a280ddabca014d4/AndroidManifest.xml:20:5-44
MERGED from [androidx.core:core:1.0.0-rc01] /Users/Dennys/.gradle/caches/transforms-1/files-1.1/core-1.0.0-rc01.aar/0de174c23b9258434a280ddabca014d4/AndroidManifest.xml:20:5-44
MERGED from [androidx.versionedparcelable:versionedparcelable:1.0.0-rc01] /Users/Dennys/.gradle/caches/transforms-1/files-1.1/versionedparcelable-1.0.0-rc01.aar/232f5d3842bd20553ab113b154c7c805/AndroidManifest.xml:20:5-44
MERGED from [androidx.versionedparcelable:versionedparcelable:1.0.0-rc01] /Users/Dennys/.gradle/caches/transforms-1/files-1.1/versionedparcelable-1.0.0-rc01.aar/232f5d3842bd20553ab113b154c7c805/AndroidManifest.xml:20:5-44
MERGED from [androidx.documentfile:documentfile:1.0.0-rc01] /Users/Dennys/.gradle/caches/transforms-1/files-1.1/documentfile-1.0.0-rc01.aar/0c2bafc5b49ea8d513642ca2b43593ec/AndroidManifest.xml:20:5-44
MERGED from [androidx.documentfile:documentfile:1.0.0-rc01] /Users/Dennys/.gradle/caches/transforms-1/files-1.1/documentfile-1.0.0-rc01.aar/0c2bafc5b49ea8d513642ca2b43593ec/AndroidManifest.xml:20:5-44
MERGED from [androidx.localbroadcastmanager:localbroadcastmanager:1.0.0-rc01] /Users/Dennys/.gradle/caches/transforms-1/files-1.1/localbroadcastmanager-1.0.0-rc01.aar/23428496c74a1db7e356eefbac36e6b2/AndroidManifest.xml:20:5-44
MERGED from [androidx.localbroadcastmanager:localbroadcastmanager:1.0.0-rc01] /Users/Dennys/.gradle/caches/transforms-1/files-1.1/localbroadcastmanager-1.0.0-rc01.aar/23428496c74a1db7e356eefbac36e6b2/AndroidManifest.xml:20:5-44
MERGED from [androidx.print:print:1.0.0-rc01] /Users/Dennys/.gradle/caches/transforms-1/files-1.1/print-1.0.0-rc01.aar/a322d70178b6f6ff2f3e069cfabf3089/AndroidManifest.xml:20:5-44
MERGED from [androidx.print:print:1.0.0-rc01] /Users/Dennys/.gradle/caches/transforms-1/files-1.1/print-1.0.0-rc01.aar/a322d70178b6f6ff2f3e069cfabf3089/AndroidManifest.xml:20:5-44
MERGED from [androidx.interpolator:interpolator:1.0.0-rc01] /Users/Dennys/.gradle/caches/transforms-1/files-1.1/interpolator-1.0.0-rc01.aar/ffed87b8a758dc154bbfee47c62cbedb/AndroidManifest.xml:20:5-44
MERGED from [androidx.interpolator:interpolator:1.0.0-rc01] /Users/Dennys/.gradle/caches/transforms-1/files-1.1/interpolator-1.0.0-rc01.aar/ffed87b8a758dc154bbfee47c62cbedb/AndroidManifest.xml:20:5-44
MERGED from [androidx.cursoradapter:cursoradapter:1.0.0-rc01] /Users/Dennys/.gradle/caches/transforms-1/files-1.1/cursoradapter-1.0.0-rc01.aar/6f241dbd3c9152474e3664194fff4911/AndroidManifest.xml:20:5-44
MERGED from [androidx.cursoradapter:cursoradapter:1.0.0-rc01] /Users/Dennys/.gradle/caches/transforms-1/files-1.1/cursoradapter-1.0.0-rc01.aar/6f241dbd3c9152474e3664194fff4911/AndroidManifest.xml:20:5-44
MERGED from [androidx.lifecycle:lifecycle-runtime:2.0.0-rc01] /Users/Dennys/.gradle/caches/transforms-1/files-1.1/lifecycle-runtime-2.0.0-rc01.aar/76cb2604f22c5a072d6545ccf4005e3d/AndroidManifest.xml:20:5-44
MERGED from [androidx.lifecycle:lifecycle-runtime:2.0.0-rc01] /Users/Dennys/.gradle/caches/transforms-1/files-1.1/lifecycle-runtime-2.0.0-rc01.aar/76cb2604f22c5a072d6545ccf4005e3d/AndroidManifest.xml:20:5-44
MERGED from [androidx.lifecycle:lifecycle-viewmodel:2.0.0-rc01] /Users/Dennys/.gradle/caches/transforms-1/files-1.1/lifecycle-viewmodel-2.0.0-rc01.aar/c80b4a6daaa25a86a25d9ceabf4fa7e5/AndroidManifest.xml:20:5-44
MERGED from [androidx.lifecycle:lifecycle-viewmodel:2.0.0-rc01] /Users/Dennys/.gradle/caches/transforms-1/files-1.1/lifecycle-viewmodel-2.0.0-rc01.aar/c80b4a6daaa25a86a25d9ceabf4fa7e5/AndroidManifest.xml:20:5-44
MERGED from [androidx.lifecycle:lifecycle-livedata-core:2.0.0-rc01] /Users/Dennys/.gradle/caches/transforms-1/files-1.1/lifecycle-livedata-core-2.0.0-rc01.aar/e9a1c7dce13957d62da31bbc1c4d60c6/AndroidManifest.xml:20:5-44
MERGED from [androidx.lifecycle:lifecycle-livedata-core:2.0.0-rc01] /Users/Dennys/.gradle/caches/transforms-1/files-1.1/lifecycle-livedata-core-2.0.0-rc01.aar/e9a1c7dce13957d62da31bbc1c4d60c6/AndroidManifest.xml:20:5-44
MERGED from [androidx.arch.core:core-runtime:2.0.0-rc01] /Users/Dennys/.gradle/caches/transforms-1/files-1.1/core-runtime-2.0.0-rc01.aar/b5ebae15579ced7d414ee15cfdcd63c6/AndroidManifest.xml:20:5-44
MERGED from [androidx.arch.core:core-runtime:2.0.0-rc01] /Users/Dennys/.gradle/caches/transforms-1/files-1.1/core-runtime-2.0.0-rc01.aar/b5ebae15579ced7d414ee15cfdcd63c6/AndroidManifest.xml:20:5-44
INJECTED from /ferramentas/workspace/cross-platform/doggis/doggis/android/app/src/debug/AndroidManifest.xml
INJECTED from /ferramentas/workspace/cross-platform/doggis/doggis/android/app/src/debug/AndroidManifest.xml
	android:targetSdkVersion
		INJECTED from /ferramentas/workspace/cross-platform/doggis/doggis/android/app/src/main/AndroidManifest.xml
		INJECTED from /ferramentas/workspace/cross-platform/doggis/doggis/android/app/src/debug/AndroidManifest.xml
	android:minSdkVersion
		INJECTED from /ferramentas/workspace/cross-platform/doggis/doggis/android/app/src/main/AndroidManifest.xml
		INJECTED from /ferramentas/workspace/cross-platform/doggis/doggis/android/app/src/debug/AndroidManifest.xml
uses-permission#android.permission.INTERNET
ADDED from /ferramentas/workspace/cross-platform/doggis/doggis/android/app/src/debug/AndroidManifest.xml:6:5-66
MERGED from [com.google.firebase:firebase-database:17.0.0] /Users/Dennys/.gradle/caches/transforms-1/files-1.1/jetified-firebase-database-17.0.0.aar/5182411a94afa88d38b844b1ae22bffa/AndroidManifest.xml:26:5-67
MERGED from [com.google.firebase:firebase-database:17.0.0] /Users/Dennys/.gradle/caches/transforms-1/files-1.1/jetified-firebase-database-17.0.0.aar/5182411a94afa88d38b844b1ae22bffa/AndroidManifest.xml:26:5-67
MERGED from [com.google.android.gms:play-services-measurement-api:16.5.0] /Users/Dennys/.gradle/caches/transforms-1/files-1.1/jetified-play-services-measurement-api-16.5.0.aar/e0f46fa86e6d0d0039ac285a9d519be8/AndroidManifest.xml:22:5-67
MERGED from [com.google.android.gms:play-services-measurement-api:16.5.0] /Users/Dennys/.gradle/caches/transforms-1/files-1.1/jetified-play-services-measurement-api-16.5.0.aar/e0f46fa86e6d0d0039ac285a9d519be8/AndroidManifest.xml:22:5-67
MERGED from [com.google.firebase:firebase-iid:17.1.2] /Users/Dennys/.gradle/caches/transforms-1/files-1.1/jetified-firebase-iid-17.1.2.aar/44b085a57c9beadf526e981c497d02d0/AndroidManifest.xml:23:5-67
MERGED from [com.google.firebase:firebase-iid:17.1.2] /Users/Dennys/.gradle/caches/transforms-1/files-1.1/jetified-firebase-iid-17.1.2.aar/44b085a57c9beadf526e981c497d02d0/AndroidManifest.xml:23:5-67
MERGED from [com.google.android.gms:play-services-measurement:16.5.0] /Users/Dennys/.gradle/caches/transforms-1/files-1.1/jetified-play-services-measurement-16.5.0.aar/ee9de075ef81fb20962eb30c9b4fcac6/AndroidManifest.xml:23:5-67
MERGED from [com.google.android.gms:play-services-measurement:16.5.0] /Users/Dennys/.gradle/caches/transforms-1/files-1.1/jetified-play-services-measurement-16.5.0.aar/ee9de075ef81fb20962eb30c9b4fcac6/AndroidManifest.xml:23:5-67
MERGED from [com.google.android.gms:play-services-measurement-impl:16.5.0] /Users/Dennys/.gradle/caches/transforms-1/files-1.1/jetified-play-services-measurement-impl-16.5.0.aar/31a62aea67c43fd692e0ddead53c34af/AndroidManifest.xml:23:5-67
MERGED from [com.google.android.gms:play-services-measurement-impl:16.5.0] /Users/Dennys/.gradle/caches/transforms-1/files-1.1/jetified-play-services-measurement-impl-16.5.0.aar/31a62aea67c43fd692e0ddead53c34af/AndroidManifest.xml:23:5-67
MERGED from [com.google.android.gms:play-services-measurement-sdk-api:16.5.0] /Users/Dennys/.gradle/caches/transforms-1/files-1.1/jetified-play-services-measurement-sdk-api-16.5.0.aar/d9438559e410b272aa23e2337889b611/AndroidManifest.xml:23:5-67
MERGED from [com.google.android.gms:play-services-measurement-sdk-api:16.5.0] /Users/Dennys/.gradle/caches/transforms-1/files-1.1/jetified-play-services-measurement-sdk-api-16.5.0.aar/d9438559e410b272aa23e2337889b611/AndroidManifest.xml:23:5-67
	android:name
		ADDED from /ferramentas/workspace/cross-platform/doggis/doggis/android/app/src/debug/AndroidManifest.xml:6:22-64
service#com.google.firebase.components.ComponentDiscoveryService
ADDED from [:firebase_auth] /ferramentas/workspace/cross-platform/doggis/doggis/build/firebase_auth/intermediates/merged_manifests/debug/processDebugManifest/merged/AndroidManifest.xml:8:9-12:19
MERGED from [:firebase_database] /ferramentas/workspace/cross-platform/doggis/doggis/build/firebase_database/intermediates/merged_manifests/debug/processDebugManifest/merged/AndroidManifest.xml:8:9-12:19
MERGED from [:firebase_database] /ferramentas/workspace/cross-platform/doggis/doggis/build/firebase_database/intermediates/merged_manifests/debug/processDebugManifest/merged/AndroidManifest.xml:8:9-12:19
MERGED from [:firebase_core] /ferramentas/workspace/cross-platform/doggis/doggis/build/firebase_core/intermediates/merged_manifests/debug/processDebugManifest/merged/AndroidManifest.xml:8:9-12:19
MERGED from [:firebase_core] /ferramentas/workspace/cross-platform/doggis/doggis/build/firebase_core/intermediates/merged_manifests/debug/processDebugManifest/merged/AndroidManifest.xml:8:9-12:19
MERGED from [com.google.firebase:firebase-auth:17.0.0] /Users/Dennys/.gradle/caches/transforms-1/files-1.1/jetified-firebase-auth-17.0.0.aar/6a94b0a0351bb37b5895b05804879275/AndroidManifest.xml:33:9-39:19
MERGED from [com.google.firebase:firebase-auth:17.0.0] /Users/Dennys/.gradle/caches/transforms-1/files-1.1/jetified-firebase-auth-17.0.0.aar/6a94b0a0351bb37b5895b05804879275/AndroidManifest.xml:33:9-39:19
MERGED from [com.google.firebase:firebase-database:17.0.0] /Users/Dennys/.gradle/caches/transforms-1/files-1.1/jetified-firebase-database-17.0.0.aar/5182411a94afa88d38b844b1ae22bffa/AndroidManifest.xml:29:9-33:19
MERGED from [com.google.firebase:firebase-database:17.0.0] /Users/Dennys/.gradle/caches/transforms-1/files-1.1/jetified-firebase-database-17.0.0.aar/5182411a94afa88d38b844b1ae22bffa/AndroidManifest.xml:29:9-33:19
MERGED from [com.google.android.gms:play-services-measurement-api:16.5.0] /Users/Dennys/.gradle/caches/transforms-1/files-1.1/jetified-play-services-measurement-api-16.5.0.aar/e0f46fa86e6d0d0039ac285a9d519be8/AndroidManifest.xml:27:9-33:19
MERGED from [com.google.android.gms:play-services-measurement-api:16.5.0] /Users/Dennys/.gradle/caches/transforms-1/files-1.1/jetified-play-services-measurement-api-16.5.0.aar/e0f46fa86e6d0d0039ac285a9d519be8/AndroidManifest.xml:27:9-33:19
MERGED from [com.google.firebase:firebase-iid:17.1.2] /Users/Dennys/.gradle/caches/transforms-1/files-1.1/jetified-firebase-iid-17.1.2.aar/44b085a57c9beadf526e981c497d02d0/AndroidManifest.xml:29:9-35:19
MERGED from [com.google.firebase:firebase-iid:17.1.2] /Users/Dennys/.gradle/caches/transforms-1/files-1.1/jetified-firebase-iid-17.1.2.aar/44b085a57c9beadf526e981c497d02d0/AndroidManifest.xml:29:9-35:19
	android:exported
		ADDED from [com.google.firebase:firebase-auth:17.0.0] /Users/Dennys/.gradle/caches/transforms-1/files-1.1/jetified-firebase-auth-17.0.0.aar/6a94b0a0351bb37b5895b05804879275/AndroidManifest.xml:35:13-37
	android:name
		ADDED from [:firebase_auth] /ferramentas/workspace/cross-platform/doggis/doggis/build/firebase_auth/intermediates/merged_manifests/debug/processDebugManifest/merged/AndroidManifest.xml:8:18-89
meta-data#com.google.firebase.components:io.flutter.plugins.firebaseauth.FlutterFirebaseAppRegistrar
ADDED from [:firebase_auth] /ferramentas/workspace/cross-platform/doggis/doggis/build/firebase_auth/intermediates/merged_manifests/debug/processDebugManifest/merged/AndroidManifest.xml:9:13-11:85
	android:value
		ADDED from [:firebase_auth] /ferramentas/workspace/cross-platform/doggis/doggis/build/firebase_auth/intermediates/merged_manifests/debug/processDebugManifest/merged/AndroidManifest.xml:11:17-82
	android:name
		ADDED from [:firebase_auth] /ferramentas/workspace/cross-platform/doggis/doggis/build/firebase_auth/intermediates/merged_manifests/debug/processDebugManifest/merged/AndroidManifest.xml:10:17-122
meta-data#com.google.firebase.components:io.flutter.plugins.firebase.database.FlutterFirebaseAppRegistrar
ADDED from [:firebase_database] /ferramentas/workspace/cross-platform/doggis/doggis/build/firebase_database/intermediates/merged_manifests/debug/processDebugManifest/merged/AndroidManifest.xml:9:13-11:85
	android:value
		ADDED from [:firebase_database] /ferramentas/workspace/cross-platform/doggis/doggis/build/firebase_database/intermediates/merged_manifests/debug/processDebugManifest/merged/AndroidManifest.xml:11:17-82
	android:name
		ADDED from [:firebase_database] /ferramentas/workspace/cross-platform/doggis/doggis/build/firebase_database/intermediates/merged_manifests/debug/processDebugManifest/merged/AndroidManifest.xml:10:17-127
meta-data#com.google.firebase.components:io.flutter.plugins.firebase.core.FlutterFirebaseAppRegistrar
ADDED from [:firebase_core] /ferramentas/workspace/cross-platform/doggis/doggis/build/firebase_core/intermediates/merged_manifests/debug/processDebugManifest/merged/AndroidManifest.xml:9:13-11:85
	android:value
		ADDED from [:firebase_core] /ferramentas/workspace/cross-platform/doggis/doggis/build/firebase_core/intermediates/merged_manifests/debug/processDebugManifest/merged/AndroidManifest.xml:11:17-82
	android:name
		ADDED from [:firebase_core] /ferramentas/workspace/cross-platform/doggis/doggis/build/firebase_core/intermediates/merged_manifests/debug/processDebugManifest/merged/AndroidManifest.xml:10:17-123
activity#com.google.firebase.auth.internal.FederatedSignInActivity
ADDED from [com.google.firebase:firebase-auth:17.0.0] /Users/Dennys/.gradle/caches/transforms-1/files-1.1/jetified-firebase-auth-17.0.0.aar/6a94b0a0351bb37b5895b05804879275/AndroidManifest.xml:24:9-31:50
	android:excludeFromRecents
		ADDED from [com.google.firebase:firebase-auth:17.0.0] /Users/Dennys/.gradle/caches/transforms-1/files-1.1/jetified-firebase-auth-17.0.0.aar/6a94b0a0351bb37b5895b05804879275/AndroidManifest.xml:26:13-46
	android:launchMode
		ADDED from [com.google.firebase:firebase-auth:17.0.0] /Users/Dennys/.gradle/caches/transforms-1/files-1.1/jetified-firebase-auth-17.0.0.aar/6a94b0a0351bb37b5895b05804879275/AndroidManifest.xml:28:13-44
	android:exported
		ADDED from [com.google.firebase:firebase-auth:17.0.0] /Users/Dennys/.gradle/caches/transforms-1/files-1.1/jetified-firebase-auth-17.0.0.aar/6a94b0a0351bb37b5895b05804879275/AndroidManifest.xml:27:13-36
	android:permission
		ADDED from [com.google.firebase:firebase-auth:17.0.0] /Users/Dennys/.gradle/caches/transforms-1/files-1.1/jetified-firebase-auth-17.0.0.aar/6a94b0a0351bb37b5895b05804879275/AndroidManifest.xml:29:13-102
	android:theme
		ADDED from [com.google.firebase:firebase-auth:17.0.0] /Users/Dennys/.gradle/caches/transforms-1/files-1.1/jetified-firebase-auth-17.0.0.aar/6a94b0a0351bb37b5895b05804879275/AndroidManifest.xml:30:13-72
	tools:replace
		ADDED from [com.google.firebase:firebase-auth:17.0.0] /Users/Dennys/.gradle/caches/transforms-1/files-1.1/jetified-firebase-auth-17.0.0.aar/6a94b0a0351bb37b5895b05804879275/AndroidManifest.xml:31:13-47
	android:name
		ADDED from [com.google.firebase:firebase-auth:17.0.0] /Users/Dennys/.gradle/caches/transforms-1/files-1.1/jetified-firebase-auth-17.0.0.aar/6a94b0a0351bb37b5895b05804879275/AndroidManifest.xml:25:13-85
meta-data#com.google.firebase.components:com.google.firebase.auth.FirebaseAuthRegistrar
ADDED from [com.google.firebase:firebase-auth:17.0.0] /Users/Dennys/.gradle/caches/transforms-1/files-1.1/jetified-firebase-auth-17.0.0.aar/6a94b0a0351bb37b5895b05804879275/AndroidManifest.xml:36:13-38:85
	android:value
		ADDED from [com.google.firebase:firebase-auth:17.0.0] /Users/Dennys/.gradle/caches/transforms-1/files-1.1/jetified-firebase-auth-17.0.0.aar/6a94b0a0351bb37b5895b05804879275/AndroidManifest.xml:38:17-82
	android:name
		ADDED from [com.google.firebase:firebase-auth:17.0.0] /Users/Dennys/.gradle/caches/transforms-1/files-1.1/jetified-firebase-auth-17.0.0.aar/6a94b0a0351bb37b5895b05804879275/AndroidManifest.xml:37:17-109
uses-permission#android.permission.ACCESS_NETWORK_STATE
ADDED from [com.google.firebase:firebase-database:17.0.0] /Users/Dennys/.gradle/caches/transforms-1/files-1.1/jetified-firebase-database-17.0.0.aar/5182411a94afa88d38b844b1ae22bffa/AndroidManifest.xml:25:5-79
MERGED from [com.google.android.gms:play-services-measurement-api:16.5.0] /Users/Dennys/.gradle/caches/transforms-1/files-1.1/jetified-play-services-measurement-api-16.5.0.aar/e0f46fa86e6d0d0039ac285a9d519be8/AndroidManifest.xml:23:5-79
MERGED from [com.google.android.gms:play-services-measurement-api:16.5.0] /Users/Dennys/.gradle/caches/transforms-1/files-1.1/jetified-play-services-measurement-api-16.5.0.aar/e0f46fa86e6d0d0039ac285a9d519be8/AndroidManifest.xml:23:5-79
MERGED from [com.google.firebase:firebase-iid:17.1.2] /Users/Dennys/.gradle/caches/transforms-1/files-1.1/jetified-firebase-iid-17.1.2.aar/44b085a57c9beadf526e981c497d02d0/AndroidManifest.xml:22:5-79
MERGED from [com.google.firebase:firebase-iid:17.1.2] /Users/Dennys/.gradle/caches/transforms-1/files-1.1/jetified-firebase-iid-17.1.2.aar/44b085a57c9beadf526e981c497d02d0/AndroidManifest.xml:22:5-79
MERGED from [com.google.android.gms:play-services-measurement:16.5.0] /Users/Dennys/.gradle/caches/transforms-1/files-1.1/jetified-play-services-measurement-16.5.0.aar/ee9de075ef81fb20962eb30c9b4fcac6/AndroidManifest.xml:24:5-79
MERGED from [com.google.android.gms:play-services-measurement:16.5.0] /Users/Dennys/.gradle/caches/transforms-1/files-1.1/jetified-play-services-measurement-16.5.0.aar/ee9de075ef81fb20962eb30c9b4fcac6/AndroidManifest.xml:24:5-79
MERGED from [com.google.android.gms:play-services-measurement-impl:16.5.0] /Users/Dennys/.gradle/caches/transforms-1/files-1.1/jetified-play-services-measurement-impl-16.5.0.aar/31a62aea67c43fd692e0ddead53c34af/AndroidManifest.xml:24:5-79
MERGED from [com.google.android.gms:play-services-measurement-impl:16.5.0] /Users/Dennys/.gradle/caches/transforms-1/files-1.1/jetified-play-services-measurement-impl-16.5.0.aar/31a62aea67c43fd692e0ddead53c34af/AndroidManifest.xml:24:5-79
MERGED from [com.google.android.gms:play-services-measurement-sdk-api:16.5.0] /Users/Dennys/.gradle/caches/transforms-1/files-1.1/jetified-play-services-measurement-sdk-api-16.5.0.aar/d9438559e410b272aa23e2337889b611/AndroidManifest.xml:24:5-79
MERGED from [com.google.android.gms:play-services-measurement-sdk-api:16.5.0] /Users/Dennys/.gradle/caches/transforms-1/files-1.1/jetified-play-services-measurement-sdk-api-16.5.0.aar/d9438559e410b272aa23e2337889b611/AndroidManifest.xml:24:5-79
	android:name
		ADDED from [com.google.firebase:firebase-database:17.0.0] /Users/Dennys/.gradle/caches/transforms-1/files-1.1/jetified-firebase-database-17.0.0.aar/5182411a94afa88d38b844b1ae22bffa/AndroidManifest.xml:25:22-76
meta-data#com.google.firebase.components:com.google.firebase.database.DatabaseRegistrar
ADDED from [com.google.firebase:firebase-database:17.0.0] /Users/Dennys/.gradle/caches/transforms-1/files-1.1/jetified-firebase-database-17.0.0.aar/5182411a94afa88d38b844b1ae22bffa/AndroidManifest.xml:30:13-32:85
	android:value
		ADDED from [com.google.firebase:firebase-database:17.0.0] /Users/Dennys/.gradle/caches/transforms-1/files-1.1/jetified-firebase-database-17.0.0.aar/5182411a94afa88d38b844b1ae22bffa/AndroidManifest.xml:32:17-82
	android:name
		ADDED from [com.google.firebase:firebase-database:17.0.0] /Users/Dennys/.gradle/caches/transforms-1/files-1.1/jetified-firebase-database-17.0.0.aar/5182411a94afa88d38b844b1ae22bffa/AndroidManifest.xml:31:17-109
uses-permission#android.permission.WAKE_LOCK
ADDED from [com.google.android.gms:play-services-measurement-api:16.5.0] /Users/Dennys/.gradle/caches/transforms-1/files-1.1/jetified-play-services-measurement-api-16.5.0.aar/e0f46fa86e6d0d0039ac285a9d519be8/AndroidManifest.xml:24:5-68
MERGED from [com.google.firebase:firebase-iid:17.1.2] /Users/Dennys/.gradle/caches/transforms-1/files-1.1/jetified-firebase-iid-17.1.2.aar/44b085a57c9beadf526e981c497d02d0/AndroidManifest.xml:24:5-68
MERGED from [com.google.firebase:firebase-iid:17.1.2] /Users/Dennys/.gradle/caches/transforms-1/files-1.1/jetified-firebase-iid-17.1.2.aar/44b085a57c9beadf526e981c497d02d0/AndroidManifest.xml:24:5-68
MERGED from [com.google.android.gms:play-services-measurement:16.5.0] /Users/Dennys/.gradle/caches/transforms-1/files-1.1/jetified-play-services-measurement-16.5.0.aar/ee9de075ef81fb20962eb30c9b4fcac6/AndroidManifest.xml:25:5-68
MERGED from [com.google.android.gms:play-services-measurement:16.5.0] /Users/Dennys/.gradle/caches/transforms-1/files-1.1/jetified-play-services-measurement-16.5.0.aar/ee9de075ef81fb20962eb30c9b4fcac6/AndroidManifest.xml:25:5-68
MERGED from [com.google.android.gms:play-services-measurement-impl:16.5.0] /Users/Dennys/.gradle/caches/transforms-1/files-1.1/jetified-play-services-measurement-impl-16.5.0.aar/31a62aea67c43fd692e0ddead53c34af/AndroidManifest.xml:25:5-68
MERGED from [com.google.android.gms:play-services-measurement-impl:16.5.0] /Users/Dennys/.gradle/caches/transforms-1/files-1.1/jetified-play-services-measurement-impl-16.5.0.aar/31a62aea67c43fd692e0ddead53c34af/AndroidManifest.xml:25:5-68
MERGED from [com.google.android.gms:play-services-measurement-sdk-api:16.5.0] /Users/Dennys/.gradle/caches/transforms-1/files-1.1/jetified-play-services-measurement-sdk-api-16.5.0.aar/d9438559e410b272aa23e2337889b611/AndroidManifest.xml:25:5-68
MERGED from [com.google.android.gms:play-services-measurement-sdk-api:16.5.0] /Users/Dennys/.gradle/caches/transforms-1/files-1.1/jetified-play-services-measurement-sdk-api-16.5.0.aar/d9438559e410b272aa23e2337889b611/AndroidManifest.xml:25:5-68
	android:name
		ADDED from [com.google.android.gms:play-services-measurement-api:16.5.0] /Users/Dennys/.gradle/caches/transforms-1/files-1.1/jetified-play-services-measurement-api-16.5.0.aar/e0f46fa86e6d0d0039ac285a9d519be8/AndroidManifest.xml:24:22-65
meta-data#com.google.firebase.components:com.google.firebase.analytics.connector.internal.AnalyticsConnectorRegistrar
ADDED from [com.google.android.gms:play-services-measurement-api:16.5.0] /Users/Dennys/.gradle/caches/transforms-1/files-1.1/jetified-play-services-measurement-api-16.5.0.aar/e0f46fa86e6d0d0039ac285a9d519be8/AndroidManifest.xml:30:13-32:85
	android:value
		ADDED from [com.google.android.gms:play-services-measurement-api:16.5.0] /Users/Dennys/.gradle/caches/transforms-1/files-1.1/jetified-play-services-measurement-api-16.5.0.aar/e0f46fa86e6d0d0039ac285a9d519be8/AndroidManifest.xml:32:17-82
	android:name
		ADDED from [com.google.android.gms:play-services-measurement-api:16.5.0] /Users/Dennys/.gradle/caches/transforms-1/files-1.1/jetified-play-services-measurement-api-16.5.0.aar/e0f46fa86e6d0d0039ac285a9d519be8/AndroidManifest.xml:31:17-139
uses-permission#com.google.android.c2dm.permission.RECEIVE
ADDED from [com.google.firebase:firebase-iid:17.1.2] /Users/Dennys/.gradle/caches/transforms-1/files-1.1/jetified-firebase-iid-17.1.2.aar/44b085a57c9beadf526e981c497d02d0/AndroidManifest.xml:26:5-82
	android:name
		ADDED from [com.google.firebase:firebase-iid:17.1.2] /Users/Dennys/.gradle/caches/transforms-1/files-1.1/jetified-firebase-iid-17.1.2.aar/44b085a57c9beadf526e981c497d02d0/AndroidManifest.xml:26:22-79
meta-data#com.google.firebase.components:com.google.firebase.iid.Registrar
ADDED from [com.google.firebase:firebase-iid:17.1.2] /Users/Dennys/.gradle/caches/transforms-1/files-1.1/jetified-firebase-iid-17.1.2.aar/44b085a57c9beadf526e981c497d02d0/AndroidManifest.xml:32:13-34:85
	android:value
		ADDED from [com.google.firebase:firebase-iid:17.1.2] /Users/Dennys/.gradle/caches/transforms-1/files-1.1/jetified-firebase-iid-17.1.2.aar/44b085a57c9beadf526e981c497d02d0/AndroidManifest.xml:34:17-82
	android:name
		ADDED from [com.google.firebase:firebase-iid:17.1.2] /Users/Dennys/.gradle/caches/transforms-1/files-1.1/jetified-firebase-iid-17.1.2.aar/44b085a57c9beadf526e981c497d02d0/AndroidManifest.xml:33:17-96
receiver#com.google.firebase.iid.FirebaseInstanceIdReceiver
ADDED from [com.google.firebase:firebase-iid:17.1.2] /Users/Dennys/.gradle/caches/transforms-1/files-1.1/jetified-firebase-iid-17.1.2.aar/44b085a57c9beadf526e981c497d02d0/AndroidManifest.xml:37:9-44:20
	android:exported
		ADDED from [com.google.firebase:firebase-iid:17.1.2] /Users/Dennys/.gradle/caches/transforms-1/files-1.1/jetified-firebase-iid-17.1.2.aar/44b085a57c9beadf526e981c497d02d0/AndroidManifest.xml:39:13-36
	android:permission
		ADDED from [com.google.firebase:firebase-iid:17.1.2] /Users/Dennys/.gradle/caches/transforms-1/files-1.1/jetified-firebase-iid-17.1.2.aar/44b085a57c9beadf526e981c497d02d0/AndroidManifest.xml:40:13-73
	android:name
		ADDED from [com.google.firebase:firebase-iid:17.1.2] /Users/Dennys/.gradle/caches/transforms-1/files-1.1/jetified-firebase-iid-17.1.2.aar/44b085a57c9beadf526e981c497d02d0/AndroidManifest.xml:38:13-78
intent-filter#action:name:com.google.android.c2dm.intent.RECEIVE
ADDED from [com.google.firebase:firebase-iid:17.1.2] /Users/Dennys/.gradle/caches/transforms-1/files-1.1/jetified-firebase-iid-17.1.2.aar/44b085a57c9beadf526e981c497d02d0/AndroidManifest.xml:41:13-43:29
action#com.google.android.c2dm.intent.RECEIVE
ADDED from [com.google.firebase:firebase-iid:17.1.2] /Users/Dennys/.gradle/caches/transforms-1/files-1.1/jetified-firebase-iid-17.1.2.aar/44b085a57c9beadf526e981c497d02d0/AndroidManifest.xml:42:17-81
	android:name
		ADDED from [com.google.firebase:firebase-iid:17.1.2] /Users/Dennys/.gradle/caches/transforms-1/files-1.1/jetified-firebase-iid-17.1.2.aar/44b085a57c9beadf526e981c497d02d0/AndroidManifest.xml:42:25-78
service#com.google.firebase.iid.FirebaseInstanceIdService
ADDED from [com.google.firebase:firebase-iid:17.1.2] /Users/Dennys/.gradle/caches/transforms-1/files-1.1/jetified-firebase-iid-17.1.2.aar/44b085a57c9beadf526e981c497d02d0/AndroidManifest.xml:50:9-56:19
	android:exported
		ADDED from [com.google.firebase:firebase-iid:17.1.2] /Users/Dennys/.gradle/caches/transforms-1/files-1.1/jetified-firebase-iid-17.1.2.aar/44b085a57c9beadf526e981c497d02d0/AndroidManifest.xml:52:13-36
	android:name
		ADDED from [com.google.firebase:firebase-iid:17.1.2] /Users/Dennys/.gradle/caches/transforms-1/files-1.1/jetified-firebase-iid-17.1.2.aar/44b085a57c9beadf526e981c497d02d0/AndroidManifest.xml:51:13-77
intent-filter#action:name:com.google.firebase.INSTANCE_ID_EVENT
ADDED from [com.google.firebase:firebase-iid:17.1.2] /Users/Dennys/.gradle/caches/transforms-1/files-1.1/jetified-firebase-iid-17.1.2.aar/44b085a57c9beadf526e981c497d02d0/AndroidManifest.xml:53:13-55:29
	android:priority
		ADDED from [com.google.firebase:firebase-iid:17.1.2] /Users/Dennys/.gradle/caches/transforms-1/files-1.1/jetified-firebase-iid-17.1.2.aar/44b085a57c9beadf526e981c497d02d0/AndroidManifest.xml:53:28-51
action#com.google.firebase.INSTANCE_ID_EVENT
ADDED from [com.google.firebase:firebase-iid:17.1.2] /Users/Dennys/.gradle/caches/transforms-1/files-1.1/jetified-firebase-iid-17.1.2.aar/44b085a57c9beadf526e981c497d02d0/AndroidManifest.xml:54:17-80
	android:name
		ADDED from [com.google.firebase:firebase-iid:17.1.2] /Users/Dennys/.gradle/caches/transforms-1/files-1.1/jetified-firebase-iid-17.1.2.aar/44b085a57c9beadf526e981c497d02d0/AndroidManifest.xml:54:25-77
provider#com.google.firebase.provider.FirebaseInitProvider
ADDED from [com.google.firebase:firebase-common:17.0.0] /Users/Dennys/.gradle/caches/transforms-1/files-1.1/jetified-firebase-common-17.0.0.aar/1ffc4816ee15ff3247fe7fa23f7f50f2/AndroidManifest.xml:12:9-16:39
	android:authorities
		ADDED from [com.google.firebase:firebase-common:17.0.0] /Users/Dennys/.gradle/caches/transforms-1/files-1.1/jetified-firebase-common-17.0.0.aar/1ffc4816ee15ff3247fe7fa23f7f50f2/AndroidManifest.xml:14:13-72
	android:exported
		ADDED from [com.google.firebase:firebase-common:17.0.0] /Users/Dennys/.gradle/caches/transforms-1/files-1.1/jetified-firebase-common-17.0.0.aar/1ffc4816ee15ff3247fe7fa23f7f50f2/AndroidManifest.xml:15:13-37
	android:initOrder
		ADDED from [com.google.firebase:firebase-common:17.0.0] /Users/Dennys/.gradle/caches/transforms-1/files-1.1/jetified-firebase-common-17.0.0.aar/1ffc4816ee15ff3247fe7fa23f7f50f2/AndroidManifest.xml:16:13-36
	android:name
		ADDED from [com.google.firebase:firebase-common:17.0.0] /Users/Dennys/.gradle/caches/transforms-1/files-1.1/jetified-firebase-common-17.0.0.aar/1ffc4816ee15ff3247fe7fa23f7f50f2/AndroidManifest.xml:13:13-77
activity#com.google.android.gms.common.api.GoogleApiActivity
ADDED from [com.google.android.gms:play-services-base:16.0.1] /Users/Dennys/.gradle/caches/transforms-1/files-1.1/jetified-play-services-base-16.0.1.aar/b63e17c3b319c13d7e8f286cf5ffca95/AndroidManifest.xml:23:9-26:75
	android:exported
		ADDED from [com.google.android.gms:play-services-base:16.0.1] /Users/Dennys/.gradle/caches/transforms-1/files-1.1/jetified-play-services-base-16.0.1.aar/b63e17c3b319c13d7e8f286cf5ffca95/AndroidManifest.xml:25:13-37
	android:theme
		ADDED from [com.google.android.gms:play-services-base:16.0.1] /Users/Dennys/.gradle/caches/transforms-1/files-1.1/jetified-play-services-base-16.0.1.aar/b63e17c3b319c13d7e8f286cf5ffca95/AndroidManifest.xml:26:13-72
	android:name
		ADDED from [com.google.android.gms:play-services-base:16.0.1] /Users/Dennys/.gradle/caches/transforms-1/files-1.1/jetified-play-services-base-16.0.1.aar/b63e17c3b319c13d7e8f286cf5ffca95/AndroidManifest.xml:24:13-79
uses-permission#com.google.android.finsky.permission.BIND_GET_INSTALL_REFERRER_SERVICE
ADDED from [com.google.android.gms:play-services-measurement:16.5.0] /Users/Dennys/.gradle/caches/transforms-1/files-1.1/jetified-play-services-measurement-16.5.0.aar/ee9de075ef81fb20962eb30c9b4fcac6/AndroidManifest.xml:26:5-110
MERGED from [com.google.android.gms:play-services-measurement-impl:16.5.0] /Users/Dennys/.gradle/caches/transforms-1/files-1.1/jetified-play-services-measurement-impl-16.5.0.aar/31a62aea67c43fd692e0ddead53c34af/AndroidManifest.xml:26:5-110
MERGED from [com.google.android.gms:play-services-measurement-impl:16.5.0] /Users/Dennys/.gradle/caches/transforms-1/files-1.1/jetified-play-services-measurement-impl-16.5.0.aar/31a62aea67c43fd692e0ddead53c34af/AndroidManifest.xml:26:5-110
MERGED from [com.google.android.gms:play-services-measurement-sdk-api:16.5.0] /Users/Dennys/.gradle/caches/transforms-1/files-1.1/jetified-play-services-measurement-sdk-api-16.5.0.aar/d9438559e410b272aa23e2337889b611/AndroidManifest.xml:26:5-110
MERGED from [com.google.android.gms:play-services-measurement-sdk-api:16.5.0] /Users/Dennys/.gradle/caches/transforms-1/files-1.1/jetified-play-services-measurement-sdk-api-16.5.0.aar/d9438559e410b272aa23e2337889b611/AndroidManifest.xml:26:5-110
	android:name
		ADDED from [com.google.android.gms:play-services-measurement:16.5.0] /Users/Dennys/.gradle/caches/transforms-1/files-1.1/jetified-play-services-measurement-16.5.0.aar/ee9de075ef81fb20962eb30c9b4fcac6/AndroidManifest.xml:26:22-107
receiver#com.google.android.gms.measurement.AppMeasurementReceiver
ADDED from [com.google.android.gms:play-services-measurement:16.5.0] /Users/Dennys/.gradle/caches/transforms-1/files-1.1/jetified-play-services-measurement-16.5.0.aar/ee9de075ef81fb20962eb30c9b4fcac6/AndroidManifest.xml:29:9-33:20
	android:enabled
		ADDED from [com.google.android.gms:play-services-measurement:16.5.0] /Users/Dennys/.gradle/caches/transforms-1/files-1.1/jetified-play-services-measurement-16.5.0.aar/ee9de075ef81fb20962eb30c9b4fcac6/AndroidManifest.xml:31:13-35
	android:exported
		ADDED from [com.google.android.gms:play-services-measurement:16.5.0] /Users/Dennys/.gradle/caches/transforms-1/files-1.1/jetified-play-services-measurement-16.5.0.aar/ee9de075ef81fb20962eb30c9b4fcac6/AndroidManifest.xml:32:13-37
	android:name
		ADDED from [com.google.android.gms:play-services-measurement:16.5.0] /Users/Dennys/.gradle/caches/transforms-1/files-1.1/jetified-play-services-measurement-16.5.0.aar/ee9de075ef81fb20962eb30c9b4fcac6/AndroidManifest.xml:30:13-85
receiver#com.google.android.gms.measurement.AppMeasurementInstallReferrerReceiver
ADDED from [com.google.android.gms:play-services-measurement:16.5.0] /Users/Dennys/.gradle/caches/transforms-1/files-1.1/jetified-play-services-measurement-16.5.0.aar/ee9de075ef81fb20962eb30c9b4fcac6/AndroidManifest.xml:34:9-42:20
MERGED from [com.google.android.gms:play-services-measurement-impl:16.5.0] /Users/Dennys/.gradle/caches/transforms-1/files-1.1/jetified-play-services-measurement-impl-16.5.0.aar/31a62aea67c43fd692e0ddead53c34af/AndroidManifest.xml:29:9-37:20
MERGED from [com.google.android.gms:play-services-measurement-impl:16.5.0] /Users/Dennys/.gradle/caches/transforms-1/files-1.1/jetified-play-services-measurement-impl-16.5.0.aar/31a62aea67c43fd692e0ddead53c34af/AndroidManifest.xml:29:9-37:20
MERGED from [com.google.android.gms:play-services-measurement-sdk-api:16.5.0] /Users/Dennys/.gradle/caches/transforms-1/files-1.1/jetified-play-services-measurement-sdk-api-16.5.0.aar/d9438559e410b272aa23e2337889b611/AndroidManifest.xml:29:9-37:20
MERGED from [com.google.android.gms:play-services-measurement-sdk-api:16.5.0] /Users/Dennys/.gradle/caches/transforms-1/files-1.1/jetified-play-services-measurement-sdk-api-16.5.0.aar/d9438559e410b272aa23e2337889b611/AndroidManifest.xml:29:9-37:20
	android:enabled
		ADDED from [com.google.android.gms:play-services-measurement:16.5.0] /Users/Dennys/.gradle/caches/transforms-1/files-1.1/jetified-play-services-measurement-16.5.0.aar/ee9de075ef81fb20962eb30c9b4fcac6/AndroidManifest.xml:36:13-35
	android:exported
		ADDED from [com.google.android.gms:play-services-measurement:16.5.0] /Users/Dennys/.gradle/caches/transforms-1/files-1.1/jetified-play-services-measurement-16.5.0.aar/ee9de075ef81fb20962eb30c9b4fcac6/AndroidManifest.xml:37:13-36
	android:permission
		ADDED from [com.google.android.gms:play-services-measurement:16.5.0] /Users/Dennys/.gradle/caches/transforms-1/files-1.1/jetified-play-services-measurement-16.5.0.aar/ee9de075ef81fb20962eb30c9b4fcac6/AndroidManifest.xml:38:13-69
	android:name
		ADDED from [com.google.android.gms:play-services-measurement:16.5.0] /Users/Dennys/.gradle/caches/transforms-1/files-1.1/jetified-play-services-measurement-16.5.0.aar/ee9de075ef81fb20962eb30c9b4fcac6/AndroidManifest.xml:35:13-100
intent-filter#action:name:com.android.vending.INSTALL_REFERRER
ADDED from [com.google.android.gms:play-services-measurement:16.5.0] /Users/Dennys/.gradle/caches/transforms-1/files-1.1/jetified-play-services-measurement-16.5.0.aar/ee9de075ef81fb20962eb30c9b4fcac6/AndroidManifest.xml:39:13-41:29
action#com.android.vending.INSTALL_REFERRER
ADDED from [com.google.android.gms:play-services-measurement:16.5.0] /Users/Dennys/.gradle/caches/transforms-1/files-1.1/jetified-play-services-measurement-16.5.0.aar/ee9de075ef81fb20962eb30c9b4fcac6/AndroidManifest.xml:40:17-79
	android:name
		ADDED from [com.google.android.gms:play-services-measurement:16.5.0] /Users/Dennys/.gradle/caches/transforms-1/files-1.1/jetified-play-services-measurement-16.5.0.aar/ee9de075ef81fb20962eb30c9b4fcac6/AndroidManifest.xml:40:25-76
service#com.google.android.gms.measurement.AppMeasurementService
ADDED from [com.google.android.gms:play-services-measurement:16.5.0] /Users/Dennys/.gradle/caches/transforms-1/files-1.1/jetified-play-services-measurement-16.5.0.aar/ee9de075ef81fb20962eb30c9b4fcac6/AndroidManifest.xml:44:9-47:40
	android:enabled
		ADDED from [com.google.android.gms:play-services-measurement:16.5.0] /Users/Dennys/.gradle/caches/transforms-1/files-1.1/jetified-play-services-measurement-16.5.0.aar/ee9de075ef81fb20962eb30c9b4fcac6/AndroidManifest.xml:46:13-35
	android:exported
		ADDED from [com.google.android.gms:play-services-measurement:16.5.0] /Users/Dennys/.gradle/caches/transforms-1/files-1.1/jetified-play-services-measurement-16.5.0.aar/ee9de075ef81fb20962eb30c9b4fcac6/AndroidManifest.xml:47:13-37
	android:name
		ADDED from [com.google.android.gms:play-services-measurement:16.5.0] /Users/Dennys/.gradle/caches/transforms-1/files-1.1/jetified-play-services-measurement-16.5.0.aar/ee9de075ef81fb20962eb30c9b4fcac6/AndroidManifest.xml:45:13-84
service#com.google.android.gms.measurement.AppMeasurementJobService
ADDED from [com.google.android.gms:play-services-measurement:16.5.0] /Users/Dennys/.gradle/caches/transforms-1/files-1.1/jetified-play-services-measurement-16.5.0.aar/ee9de075ef81fb20962eb30c9b4fcac6/AndroidManifest.xml:48:9-52:72
	android:enabled
		ADDED from [com.google.android.gms:play-services-measurement:16.5.0] /Users/Dennys/.gradle/caches/transforms-1/files-1.1/jetified-play-services-measurement-16.5.0.aar/ee9de075ef81fb20962eb30c9b4fcac6/AndroidManifest.xml:50:13-35
	android:exported
		ADDED from [com.google.android.gms:play-services-measurement:16.5.0] /Users/Dennys/.gradle/caches/transforms-1/files-1.1/jetified-play-services-measurement-16.5.0.aar/ee9de075ef81fb20962eb30c9b4fcac6/AndroidManifest.xml:51:13-37
	android:permission
		ADDED from [com.google.android.gms:play-services-measurement:16.5.0] /Users/Dennys/.gradle/caches/transforms-1/files-1.1/jetified-play-services-measurement-16.5.0.aar/ee9de075ef81fb20962eb30c9b4fcac6/AndroidManifest.xml:52:13-69
	android:name
		ADDED from [com.google.android.gms:play-services-measurement:16.5.0] /Users/Dennys/.gradle/caches/transforms-1/files-1.1/jetified-play-services-measurement-16.5.0.aar/ee9de075ef81fb20962eb30c9b4fcac6/AndroidManifest.xml:49:13-87
meta-data#com.google.android.gms.version
ADDED from [com.google.android.gms:play-services-basement:16.2.0] /Users/Dennys/.gradle/caches/transforms-1/files-1.1/jetified-play-services-basement-16.2.0.aar/99244270b8dbf319d2c19efdddbead50/AndroidManifest.xml:23:9-25:69
	android:value
		ADDED from [com.google.android.gms:play-services-basement:16.2.0] /Users/Dennys/.gradle/caches/transforms-1/files-1.1/jetified-play-services-basement-16.2.0.aar/99244270b8dbf319d2c19efdddbead50/AndroidManifest.xml:25:13-66
	android:name
		ADDED from [com.google.android.gms:play-services-basement:16.2.0] /Users/Dennys/.gradle/caches/transforms-1/files-1.1/jetified-play-services-basement-16.2.0.aar/99244270b8dbf319d2c19efdddbead50/AndroidManifest.xml:24:13-58
