{
  "project_info": {
    "project_number": "525314328831",
    "firebase_url": "https://doggis-835a7.firebaseio.com",
    "project_id": "doggis-835a7",
    "storage_bucket": "doggis-835a7.appspot.com"
  },
  "client": [
    {
      "client_info": {
        "mobilesdk_app_id": "1:525314328831:android:e7ae09076a82aa49",
        "android_client_info": {
          "package_name": "br.com.pucminas.doggis"
        }
      },
      "oauth_client": [
        {
          "client_id": "525314328831-6p9mr794g15ofjlb88g0tgc1g80mb21s.apps.googleusercontent.com",
          "client_type": 1,
          "android_info": {
            "package_name": "br.com.pucminas.doggis",
            "certificate_hash": "9e353a39de5d68d509ff649e84a7a0ed7affff6c"
          }
        },
        {
          "client_id": "525314328831-p9i5h84l37e5fkolajailjmba39vcc65.apps.googleusercontent.com",
          "client_type": 3
        }
      ],
      "api_key": [
        {
          "current_key": "AIzaSyA_iAMsA3fp-oBy5nbvuAau2Z7g9KKbJRQ"
        }
      ],
      "services": {
        "appinvite_service": {
          "other_platform_oauth_client": [
            {
              "client_id": "525314328831-p9i5h84l37e5fkolajailjmba39vcc65.apps.googleusercontent.com",
              "client_type": 3
            }
          ]
        }
      }
    }
  ],
  "configuration_version": "1"
}